^C:\USERS\KBRONIK.ANNASACH\DESKTOP\WORKING FOLDER\TEST FEBIO\FEBIOSOURCEEXTENDEDVERSION2\FEBIOSOURCE2EXTENDED\FEBIOMECH\FE2DFIBERNEOHOOKEAN.CPP
/c /ZI /nologo /W3 /WX- /Od /Oy- /D WIN32 /D _DEBUG /D _LIB /D _UNICODE /D UNICODE /Gm /EHsc /RTC1 /MDd /GS /fp:precise /Zc:wchar_t /Zc:forScope /Fo"DEBUG\\" /Fd"DEBUG\VC120.PDB" /FR"Debug\\" /Gd /TP /analyze- C:\USERS\KBRONIK.ANNASACH\DESKTOP\WORKING FOLDER\TEST FEBIO\FEBIOSOURCEEXTENDEDVERSION2\FEBIOSOURCE2EXTENDED\FEBIOMECH\FE2DFIBERNEOHOOKEAN.CPP
^C:\USERS\KBRONIK.ANNASACH\DESKTOP\WORKING FOLDER\TEST FEBIO\FEBIOSOURCEEXTENDEDVERSION2\FEBIOSOURCE2EXTENDED\FEBIOMECH\FE2DTRANSISOMOONEYRIVLIN.CPP
/c /ZI /nologo /W3 /WX- /Od /Oy- /D WIN32 /D _DEBUG /D _LIB /D _UNICODE /D UNICODE /Gm /EHsc /RTC1 /MDd /GS /fp:precise /Zc:wchar_t /Zc:forScope /Fo"DEBUG\\" /Fd"DEBUG\VC120.PDB" /FR"Debug\\" /Gd /TP /analyze- C:\USERS\KBRONIK.ANNASACH\DESKTOP\WORKING FOLDER\TEST FEBIO\FEBIOSOURCEEXTENDEDVERSION2\FEBIOSOURCE2EXTENDED\FEBIOMECH\FE2DTRANSISOMOONEYRIVLIN.CPP
^C:\USERS\KBRONIK.ANNASACH\DESKTOP\WORKING FOLDER\TEST FEBIO\FEBIOSOURCEEXTENDEDVERSION2\FEBIOSOURCE2EXTENDED\FEBIOMECH\FE2DTRANSISOVERONDAWESTMANN.CPP
/c /ZI /nologo /W3 /WX- /Od /Oy- /D WIN32 /D _DEBUG /D _LIB /D _UNICODE /D UNICODE /Gm /EHsc /RTC1 /MDd /GS /fp:precise /Zc:wchar_t /Zc:forScope /Fo"DEBUG\\" /Fd"DEBUG\VC120.PDB" /FR"Debug\\" /Gd /TP /analyze- C:\USERS\KBRONIK.ANNASACH\DESKTOP\WORKING FOLDER\TEST FEBIO\FEBIOSOURCEEXTENDEDVERSION2\FEBIOSOURCE2EXTENDED\FEBIOMECH\FE2DTRANSISOVERONDAWESTMANN.CPP
^C:\USERS\KBRONIK.ANNASACH\DESKTOP\WORKING FOLDER\TEST FEBIO\FEBIOSOURCEEXTENDEDVERSION2\FEBIOSOURCE2EXTENDED\FEBIOMECH\FE3FIELDELASTICSOLIDDOMAIN.CPP
/c /ZI /nologo /W3 /WX- /Od /Oy- /D WIN32 /D _DEBUG /D _LIB /D _UNICODE /D UNICODE /Gm /EHsc /RTC1 /MDd /GS /fp:precise /Zc:wchar_t /Zc:forScope /Fo"DEBUG\\" /Fd"DEBUG\VC120.PDB" /FR"Debug\\" /Gd /TP /analyze- C:\USERS\KBRONIK.ANNASACH\DESKTOP\WORKING FOLDER\TEST FEBIO\FEBIOSOURCEEXTENDEDVERSION2\FEBIOSOURCE2EXTENDED\FEBIOMECH\FE3FIELDELASTICSOLIDDOMAIN.CPP
^C:\USERS\KBRONIK.ANNASACH\DESKTOP\WORKING FOLDER\TEST FEBIO\FEBIOSOURCEEXTENDEDVERSION2\FEBIOSOURCE2EXTENDED\FEBIOMECH\FEARRUDABOYCE.CPP
/c /ZI /nologo /W3 /WX- /Od /Oy- /D WIN32 /D _DEBUG /D _LIB /D _UNICODE /D UNICODE /Gm /EHsc /RTC1 /MDd /GS /fp:precise /Zc:wchar_t /Zc:forScope /Fo"DEBUG\\" /Fd"DEBUG\VC120.PDB" /FR"Debug\\" /Gd /TP /analyze- C:\USERS\KBRONIK.ANNASACH\DESKTOP\WORKING FOLDER\TEST FEBIO\FEBIOSOURCEEXTENDEDVERSION2\FEBIOSOURCE2EXTENDED\FEBIOMECH\FEARRUDABOYCE.CPP
^C:\USERS\KBRONIK.ANNASACH\DESKTOP\WORKING FOLDER\TEST FEBIO\FEBIOSOURCEEXTENDEDVERSION2\FEBIOSOURCE2EXTENDED\FEBIOMECH\FEAUGLAGLINEARCONSTRAINT.CPP
/c /ZI /nologo /W3 /WX- /Od /Oy- /D WIN32 /D _DEBUG /D _LIB /D _UNICODE /D UNICODE /Gm /EHsc /RTC1 /MDd /GS /fp:precise /Zc:wchar_t /Zc:forScope /Fo"DEBUG\\" /Fd"DEBUG\VC120.PDB" /FR"Debug\\" /Gd /TP /analyze- C:\USERS\KBRONIK.ANNASACH\DESKTOP\WORKING FOLDER\TEST FEBIO\FEBIOSOURCEEXTENDEDVERSION2\FEBIOSOURCE2EXTENDED\FEBIOMECH\FEAUGLAGLINEARCONSTRAINT.CPP
^C:\USERS\KBRONIK.ANNASACH\DESKTOP\WORKING FOLDER\TEST FEBIO\FEBIOSOURCEEXTENDEDVERSION2\FEBIOSOURCE2EXTENDED\FEBIOMECH\FEBIOMECH.CPP
/c /ZI /nologo /W3 /WX- /Od /Oy- /D WIN32 /D _DEBUG /D _LIB /D _UNICODE /D UNICODE /Gm /EHsc /RTC1 /MDd /GS /fp:precise /Zc:wchar_t /Zc:forScope /Fo"DEBUG\\" /Fd"DEBUG\VC120.PDB" /FR"Debug\\" /Gd /TP /analyze- C:\USERS\KBRONIK.ANNASACH\DESKTOP\WORKING FOLDER\TEST FEBIO\FEBIOSOURCEEXTENDEDVERSION2\FEBIOSOURCE2EXTENDED\FEBIOMECH\FEBIOMECH.CPP
^C:\USERS\KBRONIK.ANNASACH\DESKTOP\WORKING FOLDER\TEST FEBIO\FEBIOSOURCEEXTENDEDVERSION2\FEBIOSOURCE2EXTENDED\FEBIOMECH\FEBIOMECHDATA.CPP
/c /ZI /nologo /W3 /WX- /Od /Oy- /D WIN32 /D _DEBUG /D _LIB /D _UNICODE /D UNICODE /Gm /EHsc /RTC1 /MDd /GS /fp:precise /Zc:wchar_t /Zc:forScope /Fo"DEBUG\\" /Fd"DEBUG\VC120.PDB" /FR"Debug\\" /Gd /TP /analyze- C:\USERS\KBRONIK.ANNASACH\DESKTOP\WORKING FOLDER\TEST FEBIO\FEBIOSOURCEEXTENDEDVERSION2\FEBIOSOURCE2EXTENDED\FEBIOMECH\FEBIOMECHDATA.CPP
^C:\USERS\KBRONIK.ANNASACH\DESKTOP\WORKING FOLDER\TEST FEBIO\FEBIOSOURCEEXTENDEDVERSION2\FEBIOSOURCE2EXTENDED\FEBIOMECH\FEBIOMECHPLOT.CPP
/c /ZI /nologo /W3 /WX- /Od /Oy- /D WIN32 /D _DEBUG /D _LIB /D _UNICODE /D UNICODE /Gm /EHsc /RTC1 /MDd /GS /fp:precise /Zc:wchar_t /Zc:forScope /Fo"DEBUG\\" /Fd"DEBUG\VC120.PDB" /FR"Debug\\" /Gd /TP /analyze- C:\USERS\KBRONIK.ANNASACH\DESKTOP\WORKING FOLDER\TEST FEBIO\FEBIOSOURCEEXTENDEDVERSION2\FEBIOSOURCE2EXTENDED\FEBIOMECH\FEBIOMECHPLOT.CPP
^C:\USERS\KBRONIK.ANNASACH\DESKTOP\WORKING FOLDER\TEST FEBIO\FEBIOSOURCEEXTENDEDVERSION2\FEBIOSOURCE2EXTENDED\FEBIOMECH\FEBODYFORCE.CPP
/c /ZI /nologo /W3 /WX- /Od /Oy- /D WIN32 /D _DEBUG /D _LIB /D _UNICODE /D UNICODE /Gm /EHsc /RTC1 /MDd /GS /fp:precise /Zc:wchar_t /Zc:forScope /Fo"DEBUG\\" /Fd"DEBUG\VC120.PDB" /FR"Debug\\" /Gd /TP /analyze- C:\USERS\KBRONIK.ANNASACH\DESKTOP\WORKING FOLDER\TEST FEBIO\FEBIOSOURCEEXTENDEDVERSION2\FEBIOSOURCE2EXTENDED\FEBIOMECH\FEBODYFORCE.CPP
^C:\USERS\KBRONIK.ANNASACH\DESKTOP\WORKING FOLDER\TEST FEBIO\FEBIOSOURCEEXTENDEDVERSION2\FEBIOSOURCE2EXTENDED\FEBIOMECH\FECARTERHAYESOLD.CPP
/c /ZI /nologo /W3 /WX- /Od /Oy- /D WIN32 /D _DEBUG /D _LIB /D _UNICODE /D UNICODE /Gm /EHsc /RTC1 /MDd /GS /fp:precise /Zc:wchar_t /Zc:forScope /Fo"DEBUG\\" /Fd"DEBUG\VC120.PDB" /FR"Debug\\" /Gd /TP /analyze- C:\USERS\KBRONIK.ANNASACH\DESKTOP\WORKING FOLDER\TEST FEBIO\FEBIOSOURCEEXTENDEDVERSION2\FEBIOSOURCE2EXTENDED\FEBIOMECH\FECARTERHAYESOLD.CPP
^C:\USERS\KBRONIK.ANNASACH\DESKTOP\WORKING FOLDER\TEST FEBIO\FEBIOSOURCEEXTENDEDVERSION2\FEBIOSOURCE2EXTENDED\FEBIOMECH\FECELLGROWTH.CPP
/c /ZI /nologo /W3 /WX- /Od /Oy- /D WIN32 /D _DEBUG /D _LIB /D _UNICODE /D UNICODE /Gm /EHsc /RTC1 /MDd /GS /fp:precise /Zc:wchar_t /Zc:forScope /Fo"DEBUG\\" /Fd"DEBUG\VC120.PDB" /FR"Debug\\" /Gd /TP /analyze- C:\USERS\KBRONIK.ANNASACH\DESKTOP\WORKING FOLDER\TEST FEBIO\FEBIOSOURCEEXTENDEDVERSION2\FEBIOSOURCE2EXTENDED\FEBIOMECH\FECELLGROWTH.CPP
^C:\USERS\KBRONIK.ANNASACH\DESKTOP\WORKING FOLDER\TEST FEBIO\FEBIOSOURCEEXTENDEDVERSION2\FEBIOSOURCE2EXTENDED\FEBIOMECH\FECGSOLIDSOLVER.CPP
/c /ZI /nologo /W3 /WX- /Od /Oy- /D WIN32 /D _DEBUG /D _LIB /D _UNICODE /D UNICODE /Gm /EHsc /RTC1 /MDd /GS /fp:precise /Zc:wchar_t /Zc:forScope /Fo"DEBUG\\" /Fd"DEBUG\VC120.PDB" /FR"Debug\\" /Gd /TP /analyze- C:\USERS\KBRONIK.ANNASACH\DESKTOP\WORKING FOLDER\TEST FEBIO\FEBIOSOURCEEXTENDEDVERSION2\FEBIOSOURCE2EXTENDED\FEBIOMECH\FECGSOLIDSOLVER.CPP
^C:\USERS\KBRONIK.ANNASACH\DESKTOP\WORKING FOLDER\TEST FEBIO\FEBIOSOURCEEXTENDEDVERSION2\FEBIOSOURCE2EXTENDED\FEBIOMECH\FECONSTBODYFORCE.CPP
/c /ZI /nologo /W3 /WX- /Od /Oy- /D WIN32 /D _DEBUG /D _LIB /D _UNICODE /D UNICODE /Gm /EHsc /RTC1 /MDd /GS /fp:precise /Zc:wchar_t /Zc:forScope /Fo"DEBUG\\" /Fd"DEBUG\VC120.PDB" /FR"Debug\\" /Gd /TP /analyze- C:\USERS\KBRONIK.ANNASACH\DESKTOP\WORKING FOLDER\TEST FEBIO\FEBIOSOURCEEXTENDEDVERSION2\FEBIOSOURCE2EXTENDED\FEBIOMECH\FECONSTBODYFORCE.CPP
^C:\USERS\KBRONIK.ANNASACH\DESKTOP\WORKING FOLDER\TEST FEBIO\FEBIOSOURCEEXTENDEDVERSION2\FEBIOSOURCE2EXTENDED\FEBIOMECH\FECONTACTINTERFACE.CPP
/c /ZI /nologo /W3 /WX- /Od /Oy- /D WIN32 /D _DEBUG /D _LIB /D _UNICODE /D UNICODE /Gm /EHsc /RTC1 /MDd /GS /fp:precise /Zc:wchar_t /Zc:forScope /Fo"DEBUG\\" /Fd"DEBUG\VC120.PDB" /FR"Debug\\" /Gd /TP /analyze- C:\USERS\KBRONIK.ANNASACH\DESKTOP\WORKING FOLDER\TEST FEBIO\FEBIOSOURCEEXTENDEDVERSION2\FEBIOSOURCE2EXTENDED\FEBIOMECH\FECONTACTINTERFACE.CPP
^C:\USERS\KBRONIK.ANNASACH\DESKTOP\WORKING FOLDER\TEST FEBIO\FEBIOSOURCEEXTENDEDVERSION2\FEBIOSOURCE2EXTENDED\FEBIOMECH\FECONTACTSURFACE.CPP
/c /ZI /nologo /W3 /WX- /Od /Oy- /D WIN32 /D _DEBUG /D _LIB /D _UNICODE /D UNICODE /Gm /EHsc /RTC1 /MDd /GS /fp:precise /Zc:wchar_t /Zc:forScope /Fo"DEBUG\\" /Fd"DEBUG\VC120.PDB" /FR"Debug\\" /Gd /TP /analyze- C:\USERS\KBRONIK.ANNASACH\DESKTOP\WORKING FOLDER\TEST FEBIO\FEBIOSOURCEEXTENDEDVERSION2\FEBIOSOURCE2EXTENDED\FEBIOMECH\FECONTACTSURFACE.CPP
^C:\USERS\KBRONIK.ANNASACH\DESKTOP\WORKING FOLDER\TEST FEBIO\FEBIOSOURCEEXTENDEDVERSION2\FEBIOSOURCE2EXTENDED\FEBIOMECH\FECONTINUOUSFIBERDISTRIBUTION.CPP
/c /ZI /nologo /W3 /WX- /Od /Oy- /D WIN32 /D _DEBUG /D _LIB /D _UNICODE /D UNICODE /Gm /EHsc /RTC1 /MDd /GS /fp:precise /Zc:wchar_t /Zc:forScope /Fo"DEBUG\\" /Fd"DEBUG\VC120.PDB" /FR"Debug\\" /Gd /TP /analyze- C:\USERS\KBRONIK.ANNASACH\DESKTOP\WORKING FOLDER\TEST FEBIO\FEBIOSOURCEEXTENDEDVERSION2\FEBIOSOURCE2EXTENDED\FEBIOMECH\FECONTINUOUSFIBERDISTRIBUTION.CPP
^C:\USERS\KBRONIK.ANNASACH\DESKTOP\WORKING FOLDER\TEST FEBIO\FEBIOSOURCEEXTENDEDVERSION2\FEBIOSOURCE2EXTENDED\FEBIOMECH\FECOUPLEDMOONEYRIVLIN.CPP
/c /ZI /nologo /W3 /WX- /Od /Oy- /D WIN32 /D _DEBUG /D _LIB /D _UNICODE /D UNICODE /Gm /EHsc /RTC1 /MDd /GS /fp:precise /Zc:wchar_t /Zc:forScope /Fo"DEBUG\\" /Fd"DEBUG\VC120.PDB" /FR"Debug\\" /Gd /TP /analyze- C:\USERS\KBRONIK.ANNASACH\DESKTOP\WORKING FOLDER\TEST FEBIO\FEBIOSOURCEEXTENDEDVERSION2\FEBIOSOURCE2EXTENDED\FEBIOMECH\FECOUPLEDMOONEYRIVLIN.CPP
^C:\USERS\KBRONIK.ANNASACH\DESKTOP\WORKING FOLDER\TEST FEBIO\FEBIOSOURCEEXTENDEDVERSION2\FEBIOSOURCE2EXTENDED\FEBIOMECH\FECOUPLEDTRANSISOMOONEYRIVLIN.CPP
/c /ZI /nologo /W3 /WX- /Od /Oy- /D WIN32 /D _DEBUG /D _LIB /D _UNICODE /D UNICODE /Gm /EHsc /RTC1 /MDd /GS /fp:precise /Zc:wchar_t /Zc:forScope /Fo"DEBUG\\" /Fd"DEBUG\VC120.PDB" /FR"Debug\\" /Gd /TP /analyze- C:\USERS\KBRONIK.ANNASACH\DESKTOP\WORKING FOLDER\TEST FEBIO\FEBIOSOURCEEXTENDEDVERSION2\FEBIOSOURCE2EXTENDED\FEBIOMECH\FECOUPLEDTRANSISOMOONEYRIVLIN.CPP
^C:\USERS\KBRONIK.ANNASACH\DESKTOP\WORKING FOLDER\TEST FEBIO\FEBIOSOURCEEXTENDEDVERSION2\FEBIOSOURCE2EXTENDED\FEBIOMECH\FECOUPLEDTRANSISOVERONDAWESTMANN.CPP
/c /ZI /nologo /W3 /WX- /Od /Oy- /D WIN32 /D _DEBUG /D _LIB /D _UNICODE /D UNICODE /Gm /EHsc /RTC1 /MDd /GS /fp:precise /Zc:wchar_t /Zc:forScope /Fo"DEBUG\\" /Fd"DEBUG\VC120.PDB" /FR"Debug\\" /Gd /TP /analyze- C:\USERS\KBRONIK.ANNASACH\DESKTOP\WORKING FOLDER\TEST FEBIO\FEBIOSOURCEEXTENDEDVERSION2\FEBIOSOURCE2EXTENDED\FEBIOMECH\FECOUPLEDTRANSISOVERONDAWESTMANN.CPP
^C:\USERS\KBRONIK.ANNASACH\DESKTOP\WORKING FOLDER\TEST FEBIO\FEBIOSOURCEEXTENDEDVERSION2\FEBIOSOURCE2EXTENDED\FEBIOMECH\FECOUPLEDVERONDAWESTMANN.CPP
/c /ZI /nologo /W3 /WX- /Od /Oy- /D WIN32 /D _DEBUG /D _LIB /D _UNICODE /D UNICODE /Gm /EHsc /RTC1 /MDd /GS /fp:precise /Zc:wchar_t /Zc:forScope /Fo"DEBUG\\" /Fd"DEBUG\VC120.PDB" /FR"Debug\\" /Gd /TP /analyze- C:\USERS\KBRONIK.ANNASACH\DESKTOP\WORKING FOLDER\TEST FEBIO\FEBIOSOURCEEXTENDEDVERSION2\FEBIOSOURCE2EXTENDED\FEBIOMECH\FECOUPLEDVERONDAWESTMANN.CPP
^C:\USERS\KBRONIK.ANNASACH\DESKTOP\WORKING FOLDER\TEST FEBIO\FEBIOSOURCEEXTENDEDVERSION2\FEBIOSOURCE2EXTENDED\FEBIOMECH\FEDAMAGEMOONEYRIVLIN.CPP
/c /ZI /nologo /W3 /WX- /Od /Oy- /D WIN32 /D _DEBUG /D _LIB /D _UNICODE /D UNICODE /Gm /EHsc /RTC1 /MDd /GS /fp:precise /Zc:wchar_t /Zc:forScope /Fo"DEBUG\\" /Fd"DEBUG\VC120.PDB" /FR"Debug\\" /Gd /TP /analyze- C:\USERS\KBRONIK.ANNASACH\DESKTOP\WORKING FOLDER\TEST FEBIO\FEBIOSOURCEEXTENDEDVERSION2\FEBIOSOURCE2EXTENDED\FEBIOMECH\FEDAMAGEMOONEYRIVLIN.CPP
^C:\USERS\KBRONIK.ANNASACH\DESKTOP\WORKING FOLDER\TEST FEBIO\FEBIOSOURCEEXTENDEDVERSION2\FEBIOSOURCE2EXTENDED\FEBIOMECH\FEDAMAGENEOHOOKEAN.CPP
/c /ZI /nologo /W3 /WX- /Od /Oy- /D WIN32 /D _DEBUG /D _LIB /D _UNICODE /D UNICODE /Gm /EHsc /RTC1 /MDd /GS /fp:precise /Zc:wchar_t /Zc:forScope /Fo"DEBUG\\" /Fd"DEBUG\VC120.PDB" /FR"Debug\\" /Gd /TP /analyze- C:\USERS\KBRONIK.ANNASACH\DESKTOP\WORKING FOLDER\TEST FEBIO\FEBIOSOURCEEXTENDEDVERSION2\FEBIOSOURCE2EXTENDED\FEBIOMECH\FEDAMAGENEOHOOKEAN.CPP
^C:\USERS\KBRONIK.ANNASACH\DESKTOP\WORKING FOLDER\TEST FEBIO\FEBIOSOURCEEXTENDEDVERSION2\FEBIOSOURCE2EXTENDED\FEBIOMECH\FEDAMAGETRANSISOMOONEYRIVLIN.CPP
/c /ZI /nologo /W3 /WX- /Od /Oy- /D WIN32 /D _DEBUG /D _LIB /D _UNICODE /D UNICODE /Gm /EHsc /RTC1 /MDd /GS /fp:precise /Zc:wchar_t /Zc:forScope /Fo"DEBUG\\" /Fd"DEBUG\VC120.PDB" /FR"Debug\\" /Gd /TP /analyze- C:\USERS\KBRONIK.ANNASACH\DESKTOP\WORKING FOLDER\TEST FEBIO\FEBIOSOURCEEXTENDEDVERSION2\FEBIOSOURCE2EXTENDED\FEBIOMECH\FEDAMAGETRANSISOMOONEYRIVLIN.CPP
^C:\USERS\KBRONIK.ANNASACH\DESKTOP\WORKING FOLDER\TEST FEBIO\FEBIOSOURCEEXTENDEDVERSION2\FEBIOSOURCE2EXTENDED\FEBIOMECH\FEDISCRETESPRINGDOMAIN.CPP
/c /ZI /nologo /W3 /WX- /Od /Oy- /D WIN32 /D _DEBUG /D _LIB /D _UNICODE /D UNICODE /Gm /EHsc /RTC1 /MDd /GS /fp:precise /Zc:wchar_t /Zc:forScope /Fo"DEBUG\\" /Fd"DEBUG\VC120.PDB" /FR"Debug\\" /Gd /TP /analyze- C:\USERS\KBRONIK.ANNASACH\DESKTOP\WORKING FOLDER\TEST FEBIO\FEBIOSOURCEEXTENDEDVERSION2\FEBIOSOURCE2EXTENDED\FEBIOMECH\FEDISCRETESPRINGDOMAIN.CPP
^C:\USERS\KBRONIK.ANNASACH\DESKTOP\WORKING FOLDER\TEST FEBIO\FEBIOSOURCEEXTENDEDVERSION2\FEBIOSOURCE2EXTENDED\FEBIOMECH\FEDONNANEQUILIBRIUM.CPP
/c /ZI /nologo /W3 /WX- /Od /Oy- /D WIN32 /D _DEBUG /D _LIB /D _UNICODE /D UNICODE /Gm /EHsc /RTC1 /MDd /GS /fp:precise /Zc:wchar_t /Zc:forScope /Fo"DEBUG\\" /Fd"DEBUG\VC120.PDB" /FR"Debug\\" /Gd /TP /analyze- C:\USERS\KBRONIK.ANNASACH\DESKTOP\WORKING FOLDER\TEST FEBIO\FEBIOSOURCEEXTENDEDVERSION2\FEBIOSOURCE2EXTENDED\FEBIOMECH\FEDONNANEQUILIBRIUM.CPP
^C:\USERS\KBRONIK.ANNASACH\DESKTOP\WORKING FOLDER\TEST FEBIO\FEBIOSOURCEEXTENDEDVERSION2\FEBIOSOURCE2EXTENDED\FEBIOMECH\FEEFD.CPP
/c /ZI /nologo /W3 /WX- /Od /Oy- /D WIN32 /D _DEBUG /D _LIB /D _UNICODE /D UNICODE /Gm /EHsc /RTC1 /MDd /GS /fp:precise /Zc:wchar_t /Zc:forScope /Fo"DEBUG\\" /Fd"DEBUG\VC120.PDB" /FR"Debug\\" /Gd /TP /analyze- C:\USERS\KBRONIK.ANNASACH\DESKTOP\WORKING FOLDER\TEST FEBIO\FEBIOSOURCEEXTENDEDVERSION2\FEBIOSOURCE2EXTENDED\FEBIOMECH\FEEFD.CPP
^C:\USERS\KBRONIK.ANNASACH\DESKTOP\WORKING FOLDER\TEST FEBIO\FEBIOSOURCEEXTENDEDVERSION2\FEBIOSOURCE2EXTENDED\FEBIOMECH\FEEFDDONNANEQUILIBRIUM.CPP
/c /ZI /nologo /W3 /WX- /Od /Oy- /D WIN32 /D _DEBUG /D _LIB /D _UNICODE /D UNICODE /Gm /EHsc /RTC1 /MDd /GS /fp:precise /Zc:wchar_t /Zc:forScope /Fo"DEBUG\\" /Fd"DEBUG\VC120.PDB" /FR"Debug\\" /Gd /TP /analyze- C:\USERS\KBRONIK.ANNASACH\DESKTOP\WORKING FOLDER\TEST FEBIO\FEBIOSOURCEEXTENDEDVERSION2\FEBIOSOURCE2EXTENDED\FEBIOMECH\FEEFDDONNANEQUILIBRIUM.CPP
^C:\USERS\KBRONIK.ANNASACH\DESKTOP\WORKING FOLDER\TEST FEBIO\FEBIOSOURCEEXTENDEDVERSION2\FEBIOSOURCE2EXTENDED\FEBIOMECH\FEEFDMOONEYRIVLIN.CPP
/c /ZI /nologo /W3 /WX- /Od /Oy- /D WIN32 /D _DEBUG /D _LIB /D _UNICODE /D UNICODE /Gm /EHsc /RTC1 /MDd /GS /fp:precise /Zc:wchar_t /Zc:forScope /Fo"DEBUG\\" /Fd"DEBUG\VC120.PDB" /FR"Debug\\" /Gd /TP /analyze- C:\USERS\KBRONIK.ANNASACH\DESKTOP\WORKING FOLDER\TEST FEBIO\FEBIOSOURCEEXTENDEDVERSION2\FEBIOSOURCE2EXTENDED\FEBIOMECH\FEEFDMOONEYRIVLIN.CPP
^C:\USERS\KBRONIK.ANNASACH\DESKTOP\WORKING FOLDER\TEST FEBIO\FEBIOSOURCEEXTENDEDVERSION2\FEBIOSOURCE2EXTENDED\FEBIOMECH\FEEFDNEOHOOKEAN.CPP
/c /ZI /nologo /W3 /WX- /Od /Oy- /D WIN32 /D _DEBUG /D _LIB /D _UNICODE /D UNICODE /Gm /EHsc /RTC1 /MDd /GS /fp:precise /Zc:wchar_t /Zc:forScope /Fo"DEBUG\\" /Fd"DEBUG\VC120.PDB" /FR"Debug\\" /Gd /TP /analyze- C:\USERS\KBRONIK.ANNASACH\DESKTOP\WORKING FOLDER\TEST FEBIO\FEBIOSOURCEEXTENDEDVERSION2\FEBIOSOURCE2EXTENDED\FEBIOMECH\FEEFDNEOHOOKEAN.CPP
^C:\USERS\KBRONIK.ANNASACH\DESKTOP\WORKING FOLDER\TEST FEBIO\FEBIOSOURCEEXTENDEDVERSION2\FEBIOSOURCE2EXTENDED\FEBIOMECH\FEEFDUNCOUPLED.CPP
/c /ZI /nologo /W3 /WX- /Od /Oy- /D WIN32 /D _DEBUG /D _LIB /D _UNICODE /D UNICODE /Gm /EHsc /RTC1 /MDd /GS /fp:precise /Zc:wchar_t /Zc:forScope /Fo"DEBUG\\" /Fd"DEBUG\VC120.PDB" /FR"Debug\\" /Gd /TP /analyze- C:\USERS\KBRONIK.ANNASACH\DESKTOP\WORKING FOLDER\TEST FEBIO\FEBIOSOURCEEXTENDEDVERSION2\FEBIOSOURCE2EXTENDED\FEBIOMECH\FEEFDUNCOUPLED.CPP
^C:\USERS\KBRONIK.ANNASACH\DESKTOP\WORKING FOLDER\TEST FEBIO\FEBIOSOURCEEXTENDEDVERSION2\FEBIOSOURCE2EXTENDED\FEBIOMECH\FEEFDVERONDAWESTMANN.CPP
/c /ZI /nologo /W3 /WX- /Od /Oy- /D WIN32 /D _DEBUG /D _LIB /D _UNICODE /D UNICODE /Gm /EHsc /RTC1 /MDd /GS /fp:precise /Zc:wchar_t /Zc:forScope /Fo"DEBUG\\" /Fd"DEBUG\VC120.PDB" /FR"Debug\\" /Gd /TP /analyze- C:\USERS\KBRONIK.ANNASACH\DESKTOP\WORKING FOLDER\TEST FEBIO\FEBIOSOURCEEXTENDEDVERSION2\FEBIOSOURCE2EXTENDED\FEBIOMECH\FEEFDVERONDAWESTMANN.CPP
^C:\USERS\KBRONIK.ANNASACH\DESKTOP\WORKING FOLDER\TEST FEBIO\FEBIOSOURCEEXTENDEDVERSION2\FEBIOSOURCE2EXTENDED\FEBIOMECH\FEELASTICFIBERMATERIAL.CPP
/c /ZI /nologo /W3 /WX- /Od /Oy- /D WIN32 /D _DEBUG /D _LIB /D _UNICODE /D UNICODE /Gm /EHsc /RTC1 /MDd /GS /fp:precise /Zc:wchar_t /Zc:forScope /Fo"DEBUG\\" /Fd"DEBUG\VC120.PDB" /FR"Debug\\" /Gd /TP /analyze- C:\USERS\KBRONIK.ANNASACH\DESKTOP\WORKING FOLDER\TEST FEBIO\FEBIOSOURCEEXTENDEDVERSION2\FEBIOSOURCE2EXTENDED\FEBIOMECH\FEELASTICFIBERMATERIAL.CPP
^C:\USERS\KBRONIK.ANNASACH\DESKTOP\WORKING FOLDER\TEST FEBIO\FEBIOSOURCEEXTENDEDVERSION2\FEBIOSOURCE2EXTENDED\FEBIOMECH\FEELASTICMATERIAL.CPP
/c /ZI /nologo /W3 /WX- /Od /Oy- /D WIN32 /D _DEBUG /D _LIB /D _UNICODE /D UNICODE /Gm /EHsc /RTC1 /MDd /GS /fp:precise /Zc:wchar_t /Zc:forScope /Fo"DEBUG\\" /Fd"DEBUG\VC120.PDB" /FR"Debug\\" /Gd /TP /analyze- C:\USERS\KBRONIK.ANNASACH\DESKTOP\WORKING FOLDER\TEST FEBIO\FEBIOSOURCEEXTENDEDVERSION2\FEBIOSOURCE2EXTENDED\FEBIOMECH\FEELASTICMATERIAL.CPP
^C:\USERS\KBRONIK.ANNASACH\DESKTOP\WORKING FOLDER\TEST FEBIO\FEBIOSOURCEEXTENDEDVERSION2\FEBIOSOURCE2EXTENDED\FEBIOMECH\FEELASTICMIXTURE.CPP
/c /ZI /nologo /W3 /WX- /Od /Oy- /D WIN32 /D _DEBUG /D _LIB /D _UNICODE /D UNICODE /Gm /EHsc /RTC1 /MDd /GS /fp:precise /Zc:wchar_t /Zc:forScope /Fo"DEBUG\\" /Fd"DEBUG\VC120.PDB" /FR"Debug\\" /Gd /TP /analyze- C:\USERS\KBRONIK.ANNASACH\DESKTOP\WORKING FOLDER\TEST FEBIO\FEBIOSOURCEEXTENDEDVERSION2\FEBIOSOURCE2EXTENDED\FEBIOMECH\FEELASTICMIXTURE.CPP
^C:\USERS\KBRONIK.ANNASACH\DESKTOP\WORKING FOLDER\TEST FEBIO\FEBIOSOURCEEXTENDEDVERSION2\FEBIOSOURCE2EXTENDED\FEBIOMECH\FEELASTICMULTIGENERATION.CPP
/c /ZI /nologo /W3 /WX- /Od /Oy- /D WIN32 /D _DEBUG /D _LIB /D _UNICODE /D UNICODE /Gm /EHsc /RTC1 /MDd /GS /fp:precise /Zc:wchar_t /Zc:forScope /Fo"DEBUG\\" /Fd"DEBUG\VC120.PDB" /FR"Debug\\" /Gd /TP /analyze- C:\USERS\KBRONIK.ANNASACH\DESKTOP\WORKING FOLDER\TEST FEBIO\FEBIOSOURCEEXTENDEDVERSION2\FEBIOSOURCE2EXTENDED\FEBIOMECH\FEELASTICMULTIGENERATION.CPP
^C:\USERS\KBRONIK.ANNASACH\DESKTOP\WORKING FOLDER\TEST FEBIO\FEBIOSOURCEEXTENDEDVERSION2\FEBIOSOURCE2EXTENDED\FEBIOMECH\FEELASTICSHELLDOMAIN.CPP
/c /ZI /nologo /W3 /WX- /Od /Oy- /D WIN32 /D _DEBUG /D _LIB /D _UNICODE /D UNICODE /Gm /EHsc /RTC1 /MDd /GS /fp:precise /Zc:wchar_t /Zc:forScope /Fo"DEBUG\\" /Fd"DEBUG\VC120.PDB" /FR"Debug\\" /Gd /TP /analyze- C:\USERS\KBRONIK.ANNASACH\DESKTOP\WORKING FOLDER\TEST FEBIO\FEBIOSOURCEEXTENDEDVERSION2\FEBIOSOURCE2EXTENDED\FEBIOMECH\FEELASTICSHELLDOMAIN.CPP
^C:\USERS\KBRONIK.ANNASACH\DESKTOP\WORKING FOLDER\TEST FEBIO\FEBIOSOURCEEXTENDEDVERSION2\FEBIOSOURCE2EXTENDED\FEBIOMECH\FEELASTICSOLIDDOMAIN.CPP
/c /ZI /nologo /W3 /WX- /Od /Oy- /D WIN32 /D _DEBUG /D _LIB /D _UNICODE /D UNICODE /Gm /EHsc /RTC1 /MDd /GS /fp:precise /Zc:wchar_t /Zc:forScope /Fo"DEBUG\\" /Fd"DEBUG\VC120.PDB" /FR"Debug\\" /Gd /TP /analyze- C:\USERS\KBRONIK.ANNASACH\DESKTOP\WORKING FOLDER\TEST FEBIO\FEBIOSOURCEEXTENDEDVERSION2\FEBIOSOURCE2EXTENDED\FEBIOMECH\FEELASTICSOLIDDOMAIN.CPP
^C:\USERS\KBRONIK.ANNASACH\DESKTOP\WORKING FOLDER\TEST FEBIO\FEBIOSOURCEEXTENDEDVERSION2\FEBIOSOURCE2EXTENDED\FEBIOMECH\FEELASTICTRUSSDOMAIN.CPP
/c /ZI /nologo /W3 /WX- /Od /Oy- /D WIN32 /D _DEBUG /D _LIB /D _UNICODE /D UNICODE /Gm /EHsc /RTC1 /MDd /GS /fp:precise /Zc:wchar_t /Zc:forScope /Fo"DEBUG\\" /Fd"DEBUG\VC120.PDB" /FR"Debug\\" /Gd /TP /analyze- C:\USERS\KBRONIK.ANNASACH\DESKTOP\WORKING FOLDER\TEST FEBIO\FEBIOSOURCEEXTENDEDVERSION2\FEBIOSOURCE2EXTENDED\FEBIOMECH\FEELASTICTRUSSDOMAIN.CPP
^C:\USERS\KBRONIK.ANNASACH\DESKTOP\WORKING FOLDER\TEST FEBIO\FEBIOSOURCEEXTENDEDVERSION2\FEBIOSOURCE2EXTENDED\FEBIOMECH\FEELLIPSOIDALFIBERDISTRIBUTION.CPP
/c /ZI /nologo /W3 /WX- /Od /Oy- /D WIN32 /D _DEBUG /D _LIB /D _UNICODE /D UNICODE /Gm /EHsc /RTC1 /MDd /GS /fp:precise /Zc:wchar_t /Zc:forScope /Fo"DEBUG\\" /Fd"DEBUG\VC120.PDB" /FR"Debug\\" /Gd /TP /analyze- C:\USERS\KBRONIK.ANNASACH\DESKTOP\WORKING FOLDER\TEST FEBIO\FEBIOSOURCEEXTENDEDVERSION2\FEBIOSOURCE2EXTENDED\FEBIOMECH\FEELLIPSOIDALFIBERDISTRIBUTION.CPP
^C:\USERS\KBRONIK.ANNASACH\DESKTOP\WORKING FOLDER\TEST FEBIO\FEBIOSOURCEEXTENDEDVERSION2\FEBIOSOURCE2EXTENDED\FEBIOMECH\FEEXPLICITSOLIDSOLVER.CPP
/c /ZI /nologo /W3 /WX- /Od /Oy- /D WIN32 /D _DEBUG /D _LIB /D _UNICODE /D UNICODE /Gm /EHsc /RTC1 /MDd /GS /fp:precise /Zc:wchar_t /Zc:forScope /Fo"DEBUG\\" /Fd"DEBUG\VC120.PDB" /FR"Debug\\" /Gd /TP /analyze- C:\USERS\KBRONIK.ANNASACH\DESKTOP\WORKING FOLDER\TEST FEBIO\FEBIOSOURCEEXTENDEDVERSION2\FEBIOSOURCE2EXTENDED\FEBIOMECH\FEEXPLICITSOLIDSOLVER.CPP
^C:\USERS\KBRONIK.ANNASACH\DESKTOP\WORKING FOLDER\TEST FEBIO\FEBIOSOURCEEXTENDEDVERSION2\FEBIOSOURCE2EXTENDED\FEBIOMECH\FEFACET2FACETSLIDING.CPP
/c /ZI /nologo /W3 /WX- /Od /Oy- /D WIN32 /D _DEBUG /D _LIB /D _UNICODE /D UNICODE /Gm /EHsc /RTC1 /MDd /GS /fp:precise /Zc:wchar_t /Zc:forScope /Fo"DEBUG\\" /Fd"DEBUG\VC120.PDB" /FR"Debug\\" /Gd /TP /analyze- C:\USERS\KBRONIK.ANNASACH\DESKTOP\WORKING FOLDER\TEST FEBIO\FEBIOSOURCEEXTENDEDVERSION2\FEBIOSOURCE2EXTENDED\FEBIOMECH\FEFACET2FACETSLIDING.CPP
^C:\USERS\KBRONIK.ANNASACH\DESKTOP\WORKING FOLDER\TEST FEBIO\FEBIOSOURCEEXTENDEDVERSION2\FEBIOSOURCE2EXTENDED\FEBIOMECH\FEFACET2FACETTIED.CPP
/c /ZI /nologo /W3 /WX- /Od /Oy- /D WIN32 /D _DEBUG /D _LIB /D _UNICODE /D UNICODE /Gm /EHsc /RTC1 /MDd /GS /fp:precise /Zc:wchar_t /Zc:forScope /Fo"DEBUG\\" /Fd"DEBUG\VC120.PDB" /FR"Debug\\" /Gd /TP /analyze- C:\USERS\KBRONIK.ANNASACH\DESKTOP\WORKING FOLDER\TEST FEBIO\FEBIOSOURCEEXTENDEDVERSION2\FEBIOSOURCE2EXTENDED\FEBIOMECH\FEFACET2FACETTIED.CPP
^C:\USERS\KBRONIK.ANNASACH\DESKTOP\WORKING FOLDER\TEST FEBIO\FEBIOSOURCEEXTENDEDVERSION2\FEBIOSOURCE2EXTENDED\FEBIOMECH\FEFIBERDENSITYDISTRIBUTION.CPP
/c /ZI /nologo /W3 /WX- /Od /Oy- /D WIN32 /D _DEBUG /D _LIB /D _UNICODE /D UNICODE /Gm /EHsc /RTC1 /MDd /GS /fp:precise /Zc:wchar_t /Zc:forScope /Fo"DEBUG\\" /Fd"DEBUG\VC120.PDB" /FR"Debug\\" /Gd /TP /analyze- C:\USERS\KBRONIK.ANNASACH\DESKTOP\WORKING FOLDER\TEST FEBIO\FEBIOSOURCEEXTENDEDVERSION2\FEBIOSOURCE2EXTENDED\FEBIOMECH\FEFIBERDENSITYDISTRIBUTION.CPP
^C:\USERS\KBRONIK.ANNASACH\DESKTOP\WORKING FOLDER\TEST FEBIO\FEBIOSOURCEEXTENDEDVERSION2\FEBIOSOURCE2EXTENDED\FEBIOMECH\FEFIBEREXPPOW.CPP
/c /ZI /nologo /W3 /WX- /Od /Oy- /D WIN32 /D _DEBUG /D _LIB /D _UNICODE /D UNICODE /Gm /EHsc /RTC1 /MDd /GS /fp:precise /Zc:wchar_t /Zc:forScope /Fo"DEBUG\\" /Fd"DEBUG\VC120.PDB" /FR"Debug\\" /Gd /TP /analyze- C:\USERS\KBRONIK.ANNASACH\DESKTOP\WORKING FOLDER\TEST FEBIO\FEBIOSOURCEEXTENDEDVERSION2\FEBIOSOURCE2EXTENDED\FEBIOMECH\FEFIBEREXPPOW.CPP
^C:\USERS\KBRONIK.ANNASACH\DESKTOP\WORKING FOLDER\TEST FEBIO\FEBIOSOURCEEXTENDEDVERSION2\FEBIOSOURCE2EXTENDED\FEBIOMECH\FEFIBEREXPPOWUNCOUPLED.CPP
/c /ZI /nologo /W3 /WX- /Od /Oy- /D WIN32 /D _DEBUG /D _LIB /D _UNICODE /D UNICODE /Gm /EHsc /RTC1 /MDd /GS /fp:precise /Zc:wchar_t /Zc:forScope /Fo"DEBUG\\" /Fd"DEBUG\VC120.PDB" /FR"Debug\\" /Gd /TP /analyze- C:\USERS\KBRONIK.ANNASACH\DESKTOP\WORKING FOLDER\TEST FEBIO\FEBIOSOURCEEXTENDEDVERSION2\FEBIOSOURCE2EXTENDED\FEBIOMECH\FEFIBEREXPPOWUNCOUPLED.CPP
^C:\USERS\KBRONIK.ANNASACH\DESKTOP\WORKING FOLDER\TEST FEBIO\FEBIOSOURCEEXTENDEDVERSION2\FEBIOSOURCE2EXTENDED\FEBIOMECH\FEFIBERINTEGRATIONGAUSS.CPP
/c /ZI /nologo /W3 /WX- /Od /Oy- /D WIN32 /D _DEBUG /D _LIB /D _UNICODE /D UNICODE /Gm /EHsc /RTC1 /MDd /GS /fp:precise /Zc:wchar_t /Zc:forScope /Fo"DEBUG\\" /Fd"DEBUG\VC120.PDB" /FR"Debug\\" /Gd /TP /analyze- C:\USERS\KBRONIK.ANNASACH\DESKTOP\WORKING FOLDER\TEST FEBIO\FEBIOSOURCEEXTENDEDVERSION2\FEBIOSOURCE2EXTENDED\FEBIOMECH\FEFIBERINTEGRATIONGAUSS.CPP
^C:\USERS\KBRONIK.ANNASACH\DESKTOP\WORKING FOLDER\TEST FEBIO\FEBIOSOURCEEXTENDEDVERSION2\FEBIOSOURCE2EXTENDED\FEBIOMECH\FEFIBERINTEGRATIONGEODESIC.CPP
/c /ZI /nologo /W3 /WX- /Od /Oy- /D WIN32 /D _DEBUG /D _LIB /D _UNICODE /D UNICODE /Gm /EHsc /RTC1 /MDd /GS /fp:precise /Zc:wchar_t /Zc:forScope /Fo"DEBUG\\" /Fd"DEBUG\VC120.PDB" /FR"Debug\\" /Gd /TP /analyze- C:\USERS\KBRONIK.ANNASACH\DESKTOP\WORKING FOLDER\TEST FEBIO\FEBIOSOURCEEXTENDEDVERSION2\FEBIOSOURCE2EXTENDED\FEBIOMECH\FEFIBERINTEGRATIONGEODESIC.CPP
^C:\USERS\KBRONIK.ANNASACH\DESKTOP\WORKING FOLDER\TEST FEBIO\FEBIOSOURCEEXTENDEDVERSION2\FEBIOSOURCE2EXTENDED\FEBIOMECH\FEFIBERINTEGRATIONSCHEME.CPP
/c /ZI /nologo /W3 /WX- /Od /Oy- /D WIN32 /D _DEBUG /D _LIB /D _UNICODE /D UNICODE /Gm /EHsc /RTC1 /MDd /GS /fp:precise /Zc:wchar_t /Zc:forScope /Fo"DEBUG\\" /Fd"DEBUG\VC120.PDB" /FR"Debug\\" /Gd /TP /analyze- C:\USERS\KBRONIK.ANNASACH\DESKTOP\WORKING FOLDER\TEST FEBIO\FEBIOSOURCEEXTENDEDVERSION2\FEBIOSOURCE2EXTENDED\FEBIOMECH\FEFIBERINTEGRATIONSCHEME.CPP
^C:\USERS\KBRONIK.ANNASACH\DESKTOP\WORKING FOLDER\TEST FEBIO\FEBIOSOURCEEXTENDEDVERSION2\FEBIOSOURCE2EXTENDED\FEBIOMECH\FEFIBERINTEGRATIONTRAPEZOIDAL.CPP
/c /ZI /nologo /W3 /WX- /Od /Oy- /D WIN32 /D _DEBUG /D _LIB /D _UNICODE /D UNICODE /Gm /EHsc /RTC1 /MDd /GS /fp:precise /Zc:wchar_t /Zc:forScope /Fo"DEBUG\\" /Fd"DEBUG\VC120.PDB" /FR"Debug\\" /Gd /TP /analyze- C:\USERS\KBRONIK.ANNASACH\DESKTOP\WORKING FOLDER\TEST FEBIO\FEBIOSOURCEEXTENDEDVERSION2\FEBIOSOURCE2EXTENDED\FEBIOMECH\FEFIBERINTEGRATIONTRAPEZOIDAL.CPP
^C:\USERS\KBRONIK.ANNASACH\DESKTOP\WORKING FOLDER\TEST FEBIO\FEBIOSOURCEEXTENDEDVERSION2\FEBIOSOURCE2EXTENDED\FEBIOMECH\FEFIBERMATERIAL.CPP
/c /ZI /nologo /W3 /WX- /Od /Oy- /D WIN32 /D _DEBUG /D _LIB /D _UNICODE /D UNICODE /Gm /EHsc /RTC1 /MDd /GS /fp:precise /Zc:wchar_t /Zc:forScope /Fo"DEBUG\\" /Fd"DEBUG\VC120.PDB" /FR"Debug\\" /Gd /TP /analyze- C:\USERS\KBRONIK.ANNASACH\DESKTOP\WORKING FOLDER\TEST FEBIO\FEBIOSOURCEEXTENDEDVERSION2\FEBIOSOURCE2EXTENDED\FEBIOMECH\FEFIBERMATERIAL.CPP
^C:\USERS\KBRONIK.ANNASACH\DESKTOP\WORKING FOLDER\TEST FEBIO\FEBIOSOURCEEXTENDEDVERSION2\FEBIOSOURCE2EXTENDED\FEBIOMECH\FEFIBERNEOHOOKEAN.CPP
/c /ZI /nologo /W3 /WX- /Od /Oy- /D WIN32 /D _DEBUG /D _LIB /D _UNICODE /D UNICODE /Gm /EHsc /RTC1 /MDd /GS /fp:precise /Zc:wchar_t /Zc:forScope /Fo"DEBUG\\" /Fd"DEBUG\VC120.PDB" /FR"Debug\\" /Gd /TP /analyze- C:\USERS\KBRONIK.ANNASACH\DESKTOP\WORKING FOLDER\TEST FEBIO\FEBIOSOURCEEXTENDEDVERSION2\FEBIOSOURCE2EXTENDED\FEBIOMECH\FEFIBERNEOHOOKEAN.CPP
^C:\USERS\KBRONIK.ANNASACH\DESKTOP\WORKING FOLDER\TEST FEBIO\FEBIOSOURCEEXTENDEDVERSION2\FEBIOSOURCE2EXTENDED\FEBIOMECH\FEFUNGORTHOCOMPRESSIBLE.CPP
/c /ZI /nologo /W3 /WX- /Od /Oy- /D WIN32 /D _DEBUG /D _LIB /D _UNICODE /D UNICODE /Gm /EHsc /RTC1 /MDd /GS /fp:precise /Zc:wchar_t /Zc:forScope /Fo"DEBUG\\" /Fd"DEBUG\VC120.PDB" /FR"Debug\\" /Gd /TP /analyze- C:\USERS\KBRONIK.ANNASACH\DESKTOP\WORKING FOLDER\TEST FEBIO\FEBIOSOURCEEXTENDEDVERSION2\FEBIOSOURCE2EXTENDED\FEBIOMECH\FEFUNGORTHOCOMPRESSIBLE.CPP
^C:\USERS\KBRONIK.ANNASACH\DESKTOP\WORKING FOLDER\TEST FEBIO\FEBIOSOURCEEXTENDEDVERSION2\FEBIOSOURCE2EXTENDED\FEBIOMECH\FEFUNGORTHOTROPIC.CPP
/c /ZI /nologo /W3 /WX- /Od /Oy- /D WIN32 /D _DEBUG /D _LIB /D _UNICODE /D UNICODE /Gm /EHsc /RTC1 /MDd /GS /fp:precise /Zc:wchar_t /Zc:forScope /Fo"DEBUG\\" /Fd"DEBUG\VC120.PDB" /FR"Debug\\" /Gd /TP /analyze- C:\USERS\KBRONIK.ANNASACH\DESKTOP\WORKING FOLDER\TEST FEBIO\FEBIOSOURCEEXTENDEDVERSION2\FEBIOSOURCE2EXTENDED\FEBIOMECH\FEFUNGORTHOTROPIC.CPP
^C:\USERS\KBRONIK.ANNASACH\DESKTOP\WORKING FOLDER\TEST FEBIO\FEBIOSOURCEEXTENDEDVERSION2\FEBIOSOURCE2EXTENDED\FEBIOMECH\FEGASSEROGDENHOLZAPFEL.CPP
/c /ZI /nologo /W3 /WX- /Od /Oy- /D WIN32 /D _DEBUG /D _LIB /D _UNICODE /D UNICODE /Gm /EHsc /RTC1 /MDd /GS /fp:precise /Zc:wchar_t /Zc:forScope /Fo"DEBUG\\" /Fd"DEBUG\VC120.PDB" /FR"Debug\\" /Gd /TP /analyze- C:\USERS\KBRONIK.ANNASACH\DESKTOP\WORKING FOLDER\TEST FEBIO\FEBIOSOURCEEXTENDEDVERSION2\FEBIOSOURCE2EXTENDED\FEBIOMECH\FEGASSEROGDENHOLZAPFEL.CPP
^C:\USERS\KBRONIK.ANNASACH\DESKTOP\WORKING FOLDER\TEST FEBIO\FEBIOSOURCEEXTENDEDVERSION2\FEBIOSOURCE2EXTENDED\FEBIOMECH\FEHOLMESMOW.CPP
/c /ZI /nologo /W3 /WX- /Od /Oy- /D WIN32 /D _DEBUG /D _LIB /D _UNICODE /D UNICODE /Gm /EHsc /RTC1 /MDd /GS /fp:precise /Zc:wchar_t /Zc:forScope /Fo"DEBUG\\" /Fd"DEBUG\VC120.PDB" /FR"Debug\\" /Gd /TP /analyze- C:\USERS\KBRONIK.ANNASACH\DESKTOP\WORKING FOLDER\TEST FEBIO\FEBIOSOURCEEXTENDEDVERSION2\FEBIOSOURCE2EXTENDED\FEBIOMECH\FEHOLMESMOW.CPP
^C:\USERS\KBRONIK.ANNASACH\DESKTOP\WORKING FOLDER\TEST FEBIO\FEBIOSOURCEEXTENDEDVERSION2\FEBIOSOURCE2EXTENDED\FEBIOMECH\FEHUISKESSUPPLY.CPP
/c /ZI /nologo /W3 /WX- /Od /Oy- /D WIN32 /D _DEBUG /D _LIB /D _UNICODE /D UNICODE /Gm /EHsc /RTC1 /MDd /GS /fp:precise /Zc:wchar_t /Zc:forScope /Fo"DEBUG\\" /Fd"DEBUG\VC120.PDB" /FR"Debug\\" /Gd /TP /analyze- C:\USERS\KBRONIK.ANNASACH\DESKTOP\WORKING FOLDER\TEST FEBIO\FEBIOSOURCEEXTENDEDVERSION2\FEBIOSOURCE2EXTENDED\FEBIOMECH\FEHUISKESSUPPLY.CPP
^C:\USERS\KBRONIK.ANNASACH\DESKTOP\WORKING FOLDER\TEST FEBIO\FEBIOSOURCEEXTENDEDVERSION2\FEBIOSOURCE2EXTENDED\FEBIOMECH\FEINCOMPNEOHOOKEAN.CPP
/c /ZI /nologo /W3 /WX- /Od /Oy- /D WIN32 /D _DEBUG /D _LIB /D _UNICODE /D UNICODE /Gm /EHsc /RTC1 /MDd /GS /fp:precise /Zc:wchar_t /Zc:forScope /Fo"DEBUG\\" /Fd"DEBUG\VC120.PDB" /FR"Debug\\" /Gd /TP /analyze- C:\USERS\KBRONIK.ANNASACH\DESKTOP\WORKING FOLDER\TEST FEBIO\FEBIOSOURCEEXTENDEDVERSION2\FEBIOSOURCE2EXTENDED\FEBIOMECH\FEINCOMPNEOHOOKEAN.CPP
^C:\USERS\KBRONIK.ANNASACH\DESKTOP\WORKING FOLDER\TEST FEBIO\FEBIOSOURCEEXTENDEDVERSION2\FEBIOSOURCE2EXTENDED\FEBIOMECH\FEINSITUSTRETCH.CPP
/c /ZI /nologo /W3 /WX- /Od /Oy- /D WIN32 /D _DEBUG /D _LIB /D _UNICODE /D UNICODE /Gm /EHsc /RTC1 /MDd /GS /fp:precise /Zc:wchar_t /Zc:forScope /Fo"DEBUG\\" /Fd"DEBUG\VC120.PDB" /FR"Debug\\" /Gd /TP /analyze- C:\USERS\KBRONIK.ANNASACH\DESKTOP\WORKING FOLDER\TEST FEBIO\FEBIOSOURCEEXTENDEDVERSION2\FEBIOSOURCE2EXTENDED\FEBIOMECH\FEINSITUSTRETCH.CPP
^C:\USERS\KBRONIK.ANNASACH\DESKTOP\WORKING FOLDER\TEST FEBIO\FEBIOSOURCEEXTENDEDVERSION2\FEBIOSOURCE2EXTENDED\FEBIOMECH\FEISOTROPICELASTIC.CPP
/c /ZI /nologo /W3 /WX- /Od /Oy- /D WIN32 /D _DEBUG /D _LIB /D _UNICODE /D UNICODE /Gm /EHsc /RTC1 /MDd /GS /fp:precise /Zc:wchar_t /Zc:forScope /Fo"DEBUG\\" /Fd"DEBUG\VC120.PDB" /FR"Debug\\" /Gd /TP /analyze- C:\USERS\KBRONIK.ANNASACH\DESKTOP\WORKING FOLDER\TEST FEBIO\FEBIOSOURCEEXTENDEDVERSION2\FEBIOSOURCE2EXTENDED\FEBIOMECH\FEISOTROPICELASTIC.CPP
^C:\USERS\KBRONIK.ANNASACH\DESKTOP\WORKING FOLDER\TEST FEBIO\FEBIOSOURCEEXTENDEDVERSION2\FEBIOSOURCE2EXTENDED\FEBIOMECH\FELINEARELASTIC.CPP
/c /ZI /nologo /W3 /WX- /Od /Oy- /D WIN32 /D _DEBUG /D _LIB /D _UNICODE /D UNICODE /Gm /EHsc /RTC1 /MDd /GS /fp:precise /Zc:wchar_t /Zc:forScope /Fo"DEBUG\\" /Fd"DEBUG\VC120.PDB" /FR"Debug\\" /Gd /TP /analyze- C:\USERS\KBRONIK.ANNASACH\DESKTOP\WORKING FOLDER\TEST FEBIO\FEBIOSOURCEEXTENDEDVERSION2\FEBIOSOURCE2EXTENDED\FEBIOMECH\FELINEARELASTIC.CPP
^C:\USERS\KBRONIK.ANNASACH\DESKTOP\WORKING FOLDER\TEST FEBIO\FEBIOSOURCEEXTENDEDVERSION2\FEBIOSOURCE2EXTENDED\FEBIOMECH\FELINEARORTHOTROPIC.CPP
/c /ZI /nologo /W3 /WX- /Od /Oy- /D WIN32 /D _DEBUG /D _LIB /D _UNICODE /D UNICODE /Gm /EHsc /RTC1 /MDd /GS /fp:precise /Zc:wchar_t /Zc:forScope /Fo"DEBUG\\" /Fd"DEBUG\VC120.PDB" /FR"Debug\\" /Gd /TP /analyze- C:\USERS\KBRONIK.ANNASACH\DESKTOP\WORKING FOLDER\TEST FEBIO\FEBIOSOURCEEXTENDEDVERSION2\FEBIOSOURCE2EXTENDED\FEBIOMECH\FELINEARORTHOTROPIC.CPP
^C:\USERS\KBRONIK.ANNASACH\DESKTOP\WORKING FOLDER\TEST FEBIO\FEBIOSOURCEEXTENDEDVERSION2\FEBIOSOURCE2EXTENDED\FEBIOMECH\FELINEARSOLIDDOMAIN.CPP
/c /ZI /nologo /W3 /WX- /Od /Oy- /D WIN32 /D _DEBUG /D _LIB /D _UNICODE /D UNICODE /Gm /EHsc /RTC1 /MDd /GS /fp:precise /Zc:wchar_t /Zc:forScope /Fo"DEBUG\\" /Fd"DEBUG\VC120.PDB" /FR"Debug\\" /Gd /TP /analyze- C:\USERS\KBRONIK.ANNASACH\DESKTOP\WORKING FOLDER\TEST FEBIO\FEBIOSOURCEEXTENDEDVERSION2\FEBIOSOURCE2EXTENDED\FEBIOMECH\FELINEARSOLIDDOMAIN.CPP
^C:\USERS\KBRONIK.ANNASACH\DESKTOP\WORKING FOLDER\TEST FEBIO\FEBIOSOURCEEXTENDEDVERSION2\FEBIOSOURCE2EXTENDED\FEBIOMECH\FELINEARSOLIDSOLVER.CPP
/c /ZI /nologo /W3 /WX- /Od /Oy- /D WIN32 /D _DEBUG /D _LIB /D _UNICODE /D UNICODE /Gm /EHsc /RTC1 /MDd /GS /fp:precise /Zc:wchar_t /Zc:forScope /Fo"DEBUG\\" /Fd"DEBUG\VC120.PDB" /FR"Debug\\" /Gd /TP /analyze- C:\USERS\KBRONIK.ANNASACH\DESKTOP\WORKING FOLDER\TEST FEBIO\FEBIOSOURCEEXTENDEDVERSION2\FEBIOSOURCE2EXTENDED\FEBIOMECH\FELINEARSOLIDSOLVER.CPP
^C:\USERS\KBRONIK.ANNASACH\DESKTOP\WORKING FOLDER\TEST FEBIO\FEBIOSOURCEEXTENDEDVERSION2\FEBIOSOURCE2EXTENDED\FEBIOMECH\FELINEARTRANSISO.CPP
/c /ZI /nologo /W3 /WX- /Od /Oy- /D WIN32 /D _DEBUG /D _LIB /D _UNICODE /D UNICODE /Gm /EHsc /RTC1 /MDd /GS /fp:precise /Zc:wchar_t /Zc:forScope /Fo"DEBUG\\" /Fd"DEBUG\VC120.PDB" /FR"Debug\\" /Gd /TP /analyze- C:\USERS\KBRONIK.ANNASACH\DESKTOP\WORKING FOLDER\TEST FEBIO\FEBIOSOURCEEXTENDEDVERSION2\FEBIOSOURCE2EXTENDED\FEBIOMECH\FELINEARTRANSISO.CPP
^C:\USERS\KBRONIK.ANNASACH\DESKTOP\WORKING FOLDER\TEST FEBIO\FEBIOSOURCEEXTENDEDVERSION2\FEBIOSOURCE2EXTENDED\FEBIOMECH\FEMICROMATERIAL.CPP
/c /ZI /nologo /W3 /WX- /Od /Oy- /D WIN32 /D _DEBUG /D _LIB /D _UNICODE /D UNICODE /Gm /EHsc /RTC1 /MDd /GS /fp:precise /Zc:wchar_t /Zc:forScope /Fo"DEBUG\\" /Fd"DEBUG\VC120.PDB" /FR"Debug\\" /Gd /TP /analyze- C:\USERS\KBRONIK.ANNASACH\DESKTOP\WORKING FOLDER\TEST FEBIO\FEBIOSOURCEEXTENDEDVERSION2\FEBIOSOURCE2EXTENDED\FEBIOMECH\FEMICROMATERIAL.CPP
^C:\USERS\KBRONIK.ANNASACH\DESKTOP\WORKING FOLDER\TEST FEBIO\FEBIOSOURCEEXTENDEDVERSION2\FEBIOSOURCE2EXTENDED\FEBIOMECH\FEMOONEYRIVLIN.CPP
/c /ZI /nologo /W3 /WX- /Od /Oy- /D WIN32 /D _DEBUG /D _LIB /D _UNICODE /D UNICODE /Gm /EHsc /RTC1 /MDd /GS /fp:precise /Zc:wchar_t /Zc:forScope /Fo"DEBUG\\" /Fd"DEBUG\VC120.PDB" /FR"Debug\\" /Gd /TP /analyze- C:\USERS\KBRONIK.ANNASACH\DESKTOP\WORKING FOLDER\TEST FEBIO\FEBIOSOURCEEXTENDEDVERSION2\FEBIOSOURCE2EXTENDED\FEBIOMECH\FEMOONEYRIVLIN.CPP
^C:\USERS\KBRONIK.ANNASACH\DESKTOP\WORKING FOLDER\TEST FEBIO\FEBIOSOURCEEXTENDEDVERSION2\FEBIOSOURCE2EXTENDED\FEBIOMECH\FEMRVONMISESFIBERS.CPP
/c /ZI /nologo /W3 /WX- /Od /Oy- /D WIN32 /D _DEBUG /D _LIB /D _UNICODE /D UNICODE /Gm /EHsc /RTC1 /MDd /GS /fp:precise /Zc:wchar_t /Zc:forScope /Fo"DEBUG\\" /Fd"DEBUG\VC120.PDB" /FR"Debug\\" /Gd /TP /analyze- C:\USERS\KBRONIK.ANNASACH\DESKTOP\WORKING FOLDER\TEST FEBIO\FEBIOSOURCEEXTENDEDVERSION2\FEBIOSOURCE2EXTENDED\FEBIOMECH\FEMRVONMISESFIBERS.CPP
^C:\USERS\KBRONIK.ANNASACH\DESKTOP\WORKING FOLDER\TEST FEBIO\FEBIOSOURCEEXTENDEDVERSION2\FEBIOSOURCE2EXTENDED\FEBIOMECH\FEMUSCLEMATERIAL.CPP
/c /ZI /nologo /W3 /WX- /Od /Oy- /D WIN32 /D _DEBUG /D _LIB /D _UNICODE /D UNICODE /Gm /EHsc /RTC1 /MDd /GS /fp:precise /Zc:wchar_t /Zc:forScope /Fo"DEBUG\\" /Fd"DEBUG\VC120.PDB" /FR"Debug\\" /Gd /TP /analyze- C:\USERS\KBRONIK.ANNASACH\DESKTOP\WORKING FOLDER\TEST FEBIO\FEBIOSOURCEEXTENDEDVERSION2\FEBIOSOURCE2EXTENDED\FEBIOMECH\FEMUSCLEMATERIAL.CPP
^C:\USERS\KBRONIK.ANNASACH\DESKTOP\WORKING FOLDER\TEST FEBIO\FEBIOSOURCEEXTENDEDVERSION2\FEBIOSOURCE2EXTENDED\FEBIOMECH\FENEOHOOKEAN.CPP
/c /ZI /nologo /W3 /WX- /Od /Oy- /D WIN32 /D _DEBUG /D _LIB /D _UNICODE /D UNICODE /Gm /EHsc /RTC1 /MDd /GS /fp:precise /Zc:wchar_t /Zc:forScope /Fo"DEBUG\\" /Fd"DEBUG\VC120.PDB" /FR"Debug\\" /Gd /TP /analyze- C:\USERS\KBRONIK.ANNASACH\DESKTOP\WORKING FOLDER\TEST FEBIO\FEBIOSOURCEEXTENDEDVERSION2\FEBIOSOURCE2EXTENDED\FEBIOMECH\FENEOHOOKEAN.CPP
^C:\USERS\KBRONIK.ANNASACH\DESKTOP\WORKING FOLDER\TEST FEBIO\FEBIOSOURCEEXTENDEDVERSION2\FEBIOSOURCE2EXTENDED\FEBIOMECH\FENEOHOOKEANTRANSISO.CPP
/c /ZI /nologo /W3 /WX- /Od /Oy- /D WIN32 /D _DEBUG /D _LIB /D _UNICODE /D UNICODE /Gm /EHsc /RTC1 /MDd /GS /fp:precise /Zc:wchar_t /Zc:forScope /Fo"DEBUG\\" /Fd"DEBUG\VC120.PDB" /FR"Debug\\" /Gd /TP /analyze- C:\USERS\KBRONIK.ANNASACH\DESKTOP\WORKING FOLDER\TEST FEBIO\FEBIOSOURCEEXTENDEDVERSION2\FEBIOSOURCE2EXTENDED\FEBIOMECH\FENEOHOOKEANTRANSISO.CPP
^C:\USERS\KBRONIK.ANNASACH\DESKTOP\WORKING FOLDER\TEST FEBIO\FEBIOSOURCEEXTENDEDVERSION2\FEBIOSOURCE2EXTENDED\FEBIOMECH\FEOGDENMATERIAL.CPP
/c /ZI /nologo /W3 /WX- /Od /Oy- /D WIN32 /D _DEBUG /D _LIB /D _UNICODE /D UNICODE /Gm /EHsc /RTC1 /MDd /GS /fp:precise /Zc:wchar_t /Zc:forScope /Fo"DEBUG\\" /Fd"DEBUG\VC120.PDB" /FR"Debug\\" /Gd /TP /analyze- C:\USERS\KBRONIK.ANNASACH\DESKTOP\WORKING FOLDER\TEST FEBIO\FEBIOSOURCEEXTENDEDVERSION2\FEBIOSOURCE2EXTENDED\FEBIOMECH\FEOGDENMATERIAL.CPP
^C:\USERS\KBRONIK.ANNASACH\DESKTOP\WORKING FOLDER\TEST FEBIO\FEBIOSOURCEEXTENDEDVERSION2\FEBIOSOURCE2EXTENDED\FEBIOMECH\FEOGDENUNCONSTRAINED.CPP
/c /ZI /nologo /W3 /WX- /Od /Oy- /D WIN32 /D _DEBUG /D _LIB /D _UNICODE /D UNICODE /Gm /EHsc /RTC1 /MDd /GS /fp:precise /Zc:wchar_t /Zc:forScope /Fo"DEBUG\\" /Fd"DEBUG\VC120.PDB" /FR"Debug\\" /Gd /TP /analyze- C:\USERS\KBRONIK.ANNASACH\DESKTOP\WORKING FOLDER\TEST FEBIO\FEBIOSOURCEEXTENDEDVERSION2\FEBIOSOURCE2EXTENDED\FEBIOMECH\FEOGDENUNCONSTRAINED.CPP
^C:\USERS\KBRONIK.ANNASACH\DESKTOP\WORKING FOLDER\TEST FEBIO\FEBIOSOURCEEXTENDEDVERSION2\FEBIOSOURCE2EXTENDED\FEBIOMECH\FEORTHOELASTIC.CPP
/c /ZI /nologo /W3 /WX- /Od /Oy- /D WIN32 /D _DEBUG /D _LIB /D _UNICODE /D UNICODE /Gm /EHsc /RTC1 /MDd /GS /fp:precise /Zc:wchar_t /Zc:forScope /Fo"DEBUG\\" /Fd"DEBUG\VC120.PDB" /FR"Debug\\" /Gd /TP /analyze- C:\USERS\KBRONIK.ANNASACH\DESKTOP\WORKING FOLDER\TEST FEBIO\FEBIOSOURCEEXTENDEDVERSION2\FEBIOSOURCE2EXTENDED\FEBIOMECH\FEORTHOELASTIC.CPP
^C:\USERS\KBRONIK.ANNASACH\DESKTOP\WORKING FOLDER\TEST FEBIO\FEBIOSOURCEEXTENDEDVERSION2\FEBIOSOURCE2EXTENDED\FEBIOMECH\FEPERFECTOSMOMETER.CPP
/c /ZI /nologo /W3 /WX- /Od /Oy- /D WIN32 /D _DEBUG /D _LIB /D _UNICODE /D UNICODE /Gm /EHsc /RTC1 /MDd /GS /fp:precise /Zc:wchar_t /Zc:forScope /Fo"DEBUG\\" /Fd"DEBUG\VC120.PDB" /FR"Debug\\" /Gd /TP /analyze- C:\USERS\KBRONIK.ANNASACH\DESKTOP\WORKING FOLDER\TEST FEBIO\FEBIOSOURCEEXTENDEDVERSION2\FEBIOSOURCE2EXTENDED\FEBIOMECH\FEPERFECTOSMOMETER.CPP
^C:\USERS\KBRONIK.ANNASACH\DESKTOP\WORKING FOLDER\TEST FEBIO\FEBIOSOURCEEXTENDEDVERSION2\FEBIOSOURCE2EXTENDED\FEBIOMECH\FEPERIODICBOUNDARY.CPP
/c /ZI /nologo /W3 /WX- /Od /Oy- /D WIN32 /D _DEBUG /D _LIB /D _UNICODE /D UNICODE /Gm /EHsc /RTC1 /MDd /GS /fp:precise /Zc:wchar_t /Zc:forScope /Fo"DEBUG\\" /Fd"DEBUG\VC120.PDB" /FR"Debug\\" /Gd /TP /analyze- C:\USERS\KBRONIK.ANNASACH\DESKTOP\WORKING FOLDER\TEST FEBIO\FEBIOSOURCEEXTENDEDVERSION2\FEBIOSOURCE2EXTENDED\FEBIOMECH\FEPERIODICBOUNDARY.CPP
^C:\USERS\KBRONIK.ANNASACH\DESKTOP\WORKING FOLDER\TEST FEBIO\FEBIOSOURCEEXTENDEDVERSION2\FEBIOSOURCE2EXTENDED\FEBIOMECH\FEPOINTBODYFORCE.CPP
/c /ZI /nologo /W3 /WX- /Od /Oy- /D WIN32 /D _DEBUG /D _LIB /D _UNICODE /D UNICODE /Gm /EHsc /RTC1 /MDd /GS /fp:precise /Zc:wchar_t /Zc:forScope /Fo"DEBUG\\" /Fd"DEBUG\VC120.PDB" /FR"Debug\\" /Gd /TP /analyze- C:\USERS\KBRONIK.ANNASACH\DESKTOP\WORKING FOLDER\TEST FEBIO\FEBIOSOURCEEXTENDEDVERSION2\FEBIOSOURCE2EXTENDED\FEBIOMECH\FEPOINTBODYFORCE.CPP
^C:\USERS\KBRONIK.ANNASACH\DESKTOP\WORKING FOLDER\TEST FEBIO\FEBIOSOURCEEXTENDEDVERSION2\FEBIOSOURCE2EXTENDED\FEBIOMECH\FEPOINTCONSTRAINT.CPP
/c /ZI /nologo /W3 /WX- /Od /Oy- /D WIN32 /D _DEBUG /D _LIB /D _UNICODE /D UNICODE /Gm /EHsc /RTC1 /MDd /GS /fp:precise /Zc:wchar_t /Zc:forScope /Fo"DEBUG\\" /Fd"DEBUG\VC120.PDB" /FR"Debug\\" /Gd /TP /analyze- C:\USERS\KBRONIK.ANNASACH\DESKTOP\WORKING FOLDER\TEST FEBIO\FEBIOSOURCEEXTENDEDVERSION2\FEBIOSOURCE2EXTENDED\FEBIOMECH\FEPOINTCONSTRAINT.CPP
^C:\USERS\KBRONIK.ANNASACH\DESKTOP\WORKING FOLDER\TEST FEBIO\FEBIOSOURCEEXTENDEDVERSION2\FEBIOSOURCE2EXTENDED\FEBIOMECH\FEPRESSURELOAD.CPP
/c /ZI /nologo /W3 /WX- /Od /Oy- /D WIN32 /D _DEBUG /D _LIB /D _UNICODE /D UNICODE /Gm /EHsc /RTC1 /MDd /GS /fp:precise /Zc:wchar_t /Zc:forScope /Fo"DEBUG\\" /Fd"DEBUG\VC120.PDB" /FR"Debug\\" /Gd /TP /analyze- C:\USERS\KBRONIK.ANNASACH\DESKTOP\WORKING FOLDER\TEST FEBIO\FEBIOSOURCEEXTENDEDVERSION2\FEBIOSOURCE2EXTENDED\FEBIOMECH\FEPRESSURELOAD.CPP
^C:\USERS\KBRONIK.ANNASACH\DESKTOP\WORKING FOLDER\TEST FEBIO\FEBIOSOURCEEXTENDEDVERSION2\FEBIOSOURCE2EXTENDED\FEBIOMECH\FEPRESTRAINELASTIC.CPP
/c /ZI /nologo /W3 /WX- /Od /Oy- /D WIN32 /D _DEBUG /D _LIB /D _UNICODE /D UNICODE /Gm /EHsc /RTC1 /MDd /GS /fp:precise /Zc:wchar_t /Zc:forScope /Fo"DEBUG\\" /Fd"DEBUG\VC120.PDB" /FR"Debug\\" /Gd /TP /analyze- C:\USERS\KBRONIK.ANNASACH\DESKTOP\WORKING FOLDER\TEST FEBIO\FEBIOSOURCEEXTENDEDVERSION2\FEBIOSOURCE2EXTENDED\FEBIOMECH\FEPRESTRAINELASTIC.CPP
^C:\USERS\KBRONIK.ANNASACH\DESKTOP\WORKING FOLDER\TEST FEBIO\FEBIOSOURCEEXTENDEDVERSION2\FEBIOSOURCE2EXTENDED\FEBIOMECH\FEPRESTRAINTRANSISOMR.CPP
/c /ZI /nologo /W3 /WX- /Od /Oy- /D WIN32 /D _DEBUG /D _LIB /D _UNICODE /D UNICODE /Gm /EHsc /RTC1 /MDd /GS /fp:precise /Zc:wchar_t /Zc:forScope /Fo"DEBUG\\" /Fd"DEBUG\VC120.PDB" /FR"Debug\\" /Gd /TP /analyze- C:\USERS\KBRONIK.ANNASACH\DESKTOP\WORKING FOLDER\TEST FEBIO\FEBIOSOURCEEXTENDEDVERSION2\FEBIOSOURCE2EXTENDED\FEBIOMECH\FEPRESTRAINTRANSISOMR.CPP
^C:\USERS\KBRONIK.ANNASACH\DESKTOP\WORKING FOLDER\TEST FEBIO\FEBIOSOURCEEXTENDEDVERSION2\FEBIOSOURCE2EXTENDED\FEBIOMECH\FEPRLIG.CPP
/c /ZI /nologo /W3 /WX- /Od /Oy- /D WIN32 /D _DEBUG /D _LIB /D _UNICODE /D UNICODE /Gm /EHsc /RTC1 /MDd /GS /fp:precise /Zc:wchar_t /Zc:forScope /Fo"DEBUG\\" /Fd"DEBUG\VC120.PDB" /FR"Debug\\" /Gd /TP /analyze- C:\USERS\KBRONIK.ANNASACH\DESKTOP\WORKING FOLDER\TEST FEBIO\FEBIOSOURCEEXTENDEDVERSION2\FEBIOSOURCE2EXTENDED\FEBIOMECH\FEPRLIG.CPP
^C:\USERS\KBRONIK.ANNASACH\DESKTOP\WORKING FOLDER\TEST FEBIO\FEBIOSOURCEEXTENDEDVERSION2\FEBIOSOURCE2EXTENDED\FEBIOMECH\FEREMODELINGELASTICDOMAIN.CPP
/c /ZI /nologo /W3 /WX- /Od /Oy- /D WIN32 /D _DEBUG /D _LIB /D _UNICODE /D UNICODE /Gm /EHsc /RTC1 /MDd /GS /fp:precise /Zc:wchar_t /Zc:forScope /Fo"DEBUG\\" /Fd"DEBUG\VC120.PDB" /FR"Debug\\" /Gd /TP /analyze- C:\USERS\KBRONIK.ANNASACH\DESKTOP\WORKING FOLDER\TEST FEBIO\FEBIOSOURCEEXTENDEDVERSION2\FEBIOSOURCE2EXTENDED\FEBIOMECH\FEREMODELINGELASTICDOMAIN.CPP
^C:\USERS\KBRONIK.ANNASACH\DESKTOP\WORKING FOLDER\TEST FEBIO\FEBIOSOURCEEXTENDEDVERSION2\FEBIOSOURCE2EXTENDED\FEBIOMECH\FEREMODELINGELASTICMATERIAL.CPP
/c /ZI /nologo /W3 /WX- /Od /Oy- /D WIN32 /D _DEBUG /D _LIB /D _UNICODE /D UNICODE /Gm /EHsc /RTC1 /MDd /GS /fp:precise /Zc:wchar_t /Zc:forScope /Fo"DEBUG\\" /Fd"DEBUG\VC120.PDB" /FR"Debug\\" /Gd /TP /analyze- C:\USERS\KBRONIK.ANNASACH\DESKTOP\WORKING FOLDER\TEST FEBIO\FEBIOSOURCEEXTENDEDVERSION2\FEBIOSOURCE2EXTENDED\FEBIOMECH\FEREMODELINGELASTICMATERIAL.CPP
^C:\USERS\KBRONIK.ANNASACH\DESKTOP\WORKING FOLDER\TEST FEBIO\FEBIOSOURCEEXTENDEDVERSION2\FEBIOSOURCE2EXTENDED\FEBIOMECH\FERESIDUALVECTOR.CPP
/c /ZI /nologo /W3 /WX- /Od /Oy- /D WIN32 /D _DEBUG /D _LIB /D _UNICODE /D UNICODE /Gm /EHsc /RTC1 /MDd /GS /fp:precise /Zc:wchar_t /Zc:forScope /Fo"DEBUG\\" /Fd"DEBUG\VC120.PDB" /FR"Debug\\" /Gd /TP /analyze- C:\USERS\KBRONIK.ANNASACH\DESKTOP\WORKING FOLDER\TEST FEBIO\FEBIOSOURCEEXTENDEDVERSION2\FEBIOSOURCE2EXTENDED\FEBIOMECH\FERESIDUALVECTOR.CPP
^C:\USERS\KBRONIK.ANNASACH\DESKTOP\WORKING FOLDER\TEST FEBIO\FEBIOSOURCEEXTENDEDVERSION2\FEBIOSOURCE2EXTENDED\FEBIOMECH\FERIGIDJOINT.CPP
/c /ZI /nologo /W3 /WX- /Od /Oy- /D WIN32 /D _DEBUG /D _LIB /D _UNICODE /D UNICODE /Gm /EHsc /RTC1 /MDd /GS /fp:precise /Zc:wchar_t /Zc:forScope /Fo"DEBUG\\" /Fd"DEBUG\VC120.PDB" /FR"Debug\\" /Gd /TP /analyze- C:\USERS\KBRONIK.ANNASACH\DESKTOP\WORKING FOLDER\TEST FEBIO\FEBIOSOURCEEXTENDEDVERSION2\FEBIOSOURCE2EXTENDED\FEBIOMECH\FERIGIDJOINT.CPP
^C:\USERS\KBRONIK.ANNASACH\DESKTOP\WORKING FOLDER\TEST FEBIO\FEBIOSOURCEEXTENDEDVERSION2\FEBIOSOURCE2EXTENDED\FEBIOMECH\FERIGIDMATERIAL.CPP
/c /ZI /nologo /W3 /WX- /Od /Oy- /D WIN32 /D _DEBUG /D _LIB /D _UNICODE /D UNICODE /Gm /EHsc /RTC1 /MDd /GS /fp:precise /Zc:wchar_t /Zc:forScope /Fo"DEBUG\\" /Fd"DEBUG\VC120.PDB" /FR"Debug\\" /Gd /TP /analyze- C:\USERS\KBRONIK.ANNASACH\DESKTOP\WORKING FOLDER\TEST FEBIO\FEBIOSOURCEEXTENDEDVERSION2\FEBIOSOURCE2EXTENDED\FEBIOMECH\FERIGIDMATERIAL.CPP
^C:\USERS\KBRONIK.ANNASACH\DESKTOP\WORKING FOLDER\TEST FEBIO\FEBIOSOURCEEXTENDEDVERSION2\FEBIOSOURCE2EXTENDED\FEBIOMECH\FERIGIDSHELLDOMAIN.CPP
/c /ZI /nologo /W3 /WX- /Od /Oy- /D WIN32 /D _DEBUG /D _LIB /D _UNICODE /D UNICODE /Gm /EHsc /RTC1 /MDd /GS /fp:precise /Zc:wchar_t /Zc:forScope /Fo"DEBUG\\" /Fd"DEBUG\VC120.PDB" /FR"Debug\\" /Gd /TP /analyze- C:\USERS\KBRONIK.ANNASACH\DESKTOP\WORKING FOLDER\TEST FEBIO\FEBIOSOURCEEXTENDEDVERSION2\FEBIOSOURCE2EXTENDED\FEBIOMECH\FERIGIDSHELLDOMAIN.CPP
^C:\USERS\KBRONIK.ANNASACH\DESKTOP\WORKING FOLDER\TEST FEBIO\FEBIOSOURCEEXTENDEDVERSION2\FEBIOSOURCE2EXTENDED\FEBIOMECH\FERIGIDSOLIDDOMAIN.CPP
/c /ZI /nologo /W3 /WX- /Od /Oy- /D WIN32 /D _DEBUG /D _LIB /D _UNICODE /D UNICODE /Gm /EHsc /RTC1 /MDd /GS /fp:precise /Zc:wchar_t /Zc:forScope /Fo"DEBUG\\" /Fd"DEBUG\VC120.PDB" /FR"Debug\\" /Gd /TP /analyze- C:\USERS\KBRONIK.ANNASACH\DESKTOP\WORKING FOLDER\TEST FEBIO\FEBIOSOURCEEXTENDEDVERSION2\FEBIOSOURCE2EXTENDED\FEBIOMECH\FERIGIDSOLIDDOMAIN.CPP
^C:\USERS\KBRONIK.ANNASACH\DESKTOP\WORKING FOLDER\TEST FEBIO\FEBIOSOURCEEXTENDEDVERSION2\FEBIOSOURCE2EXTENDED\FEBIOMECH\FERIGIDSURFACE.CPP
/c /ZI /nologo /W3 /WX- /Od /Oy- /D WIN32 /D _DEBUG /D _LIB /D _UNICODE /D UNICODE /Gm /EHsc /RTC1 /MDd /GS /fp:precise /Zc:wchar_t /Zc:forScope /Fo"DEBUG\\" /Fd"DEBUG\VC120.PDB" /FR"Debug\\" /Gd /TP /analyze- C:\USERS\KBRONIK.ANNASACH\DESKTOP\WORKING FOLDER\TEST FEBIO\FEBIOSOURCEEXTENDEDVERSION2\FEBIOSOURCE2EXTENDED\FEBIOMECH\FERIGIDSURFACE.CPP
^C:\USERS\KBRONIK.ANNASACH\DESKTOP\WORKING FOLDER\TEST FEBIO\FEBIOSOURCEEXTENDEDVERSION2\FEBIOSOURCE2EXTENDED\FEBIOMECH\FERIGIDWALLINTERFACE.CPP
/c /ZI /nologo /W3 /WX- /Od /Oy- /D WIN32 /D _DEBUG /D _LIB /D _UNICODE /D UNICODE /Gm /EHsc /RTC1 /MDd /GS /fp:precise /Zc:wchar_t /Zc:forScope /Fo"DEBUG\\" /Fd"DEBUG\VC120.PDB" /FR"Debug\\" /Gd /TP /analyze- C:\USERS\KBRONIK.ANNASACH\DESKTOP\WORKING FOLDER\TEST FEBIO\FEBIOSOURCEEXTENDEDVERSION2\FEBIOSOURCE2EXTENDED\FEBIOMECH\FERIGIDWALLINTERFACE.CPP
^C:\USERS\KBRONIK.ANNASACH\DESKTOP\WORKING FOLDER\TEST FEBIO\FEBIOSOURCEEXTENDEDVERSION2\FEBIOSOURCE2EXTENDED\FEBIOMECH\FESLIDINGINTERFACE.CPP
/c /ZI /nologo /W3 /WX- /Od /Oy- /D WIN32 /D _DEBUG /D _LIB /D _UNICODE /D UNICODE /Gm /EHsc /RTC1 /MDd /GS /fp:precise /Zc:wchar_t /Zc:forScope /Fo"DEBUG\\" /Fd"DEBUG\VC120.PDB" /FR"Debug\\" /Gd /TP /analyze- C:\USERS\KBRONIK.ANNASACH\DESKTOP\WORKING FOLDER\TEST FEBIO\FEBIOSOURCEEXTENDEDVERSION2\FEBIOSOURCE2EXTENDED\FEBIOMECH\FESLIDINGINTERFACE.CPP
^C:\USERS\KBRONIK.ANNASACH\DESKTOP\WORKING FOLDER\TEST FEBIO\FEBIOSOURCEEXTENDEDVERSION2\FEBIOSOURCE2EXTENDED\FEBIOMECH\FESLIDINGINTERFACEBW.CPP
/c /ZI /nologo /W3 /WX- /Od /Oy- /D WIN32 /D _DEBUG /D _LIB /D _UNICODE /D UNICODE /Gm /EHsc /RTC1 /MDd /GS /fp:precise /Zc:wchar_t /Zc:forScope /Fo"DEBUG\\" /Fd"DEBUG\VC120.PDB" /FR"Debug\\" /Gd /TP /analyze- C:\USERS\KBRONIK.ANNASACH\DESKTOP\WORKING FOLDER\TEST FEBIO\FEBIOSOURCEEXTENDEDVERSION2\FEBIOSOURCE2EXTENDED\FEBIOMECH\FESLIDINGINTERFACEBW.CPP
^C:\USERS\KBRONIK.ANNASACH\DESKTOP\WORKING FOLDER\TEST FEBIO\FEBIOSOURCEEXTENDEDVERSION2\FEBIOSOURCE2EXTENDED\FEBIOMECH\FESOLIDANALYSIS.CPP
/c /ZI /nologo /W3 /WX- /Od /Oy- /D WIN32 /D _DEBUG /D _LIB /D _UNICODE /D UNICODE /Gm /EHsc /RTC1 /MDd /GS /fp:precise /Zc:wchar_t /Zc:forScope /Fo"DEBUG\\" /Fd"DEBUG\VC120.PDB" /FR"Debug\\" /Gd /TP /analyze- C:\USERS\KBRONIK.ANNASACH\DESKTOP\WORKING FOLDER\TEST FEBIO\FEBIOSOURCEEXTENDEDVERSION2\FEBIOSOURCE2EXTENDED\FEBIOMECH\FESOLIDANALYSIS.CPP
^C:\USERS\KBRONIK.ANNASACH\DESKTOP\WORKING FOLDER\TEST FEBIO\FEBIOSOURCEEXTENDEDVERSION2\FEBIOSOURCE2EXTENDED\FEBIOMECH\FESOLIDMATERIAL.CPP
/c /ZI /nologo /W3 /WX- /Od /Oy- /D WIN32 /D _DEBUG /D _LIB /D _UNICODE /D UNICODE /Gm /EHsc /RTC1 /MDd /GS /fp:precise /Zc:wchar_t /Zc:forScope /Fo"DEBUG\\" /Fd"DEBUG\VC120.PDB" /FR"Debug\\" /Gd /TP /analyze- C:\USERS\KBRONIK.ANNASACH\DESKTOP\WORKING FOLDER\TEST FEBIO\FEBIOSOURCEEXTENDEDVERSION2\FEBIOSOURCE2EXTENDED\FEBIOMECH\FESOLIDMATERIAL.CPP
^C:\USERS\KBRONIK.ANNASACH\DESKTOP\WORKING FOLDER\TEST FEBIO\FEBIOSOURCEEXTENDEDVERSION2\FEBIOSOURCE2EXTENDED\FEBIOMECH\FESOLIDDOMAINFACTORY.CPP
/c /ZI /nologo /W3 /WX- /Od /Oy- /D WIN32 /D _DEBUG /D _LIB /D _UNICODE /D UNICODE /Gm /EHsc /RTC1 /MDd /GS /fp:precise /Zc:wchar_t /Zc:forScope /Fo"DEBUG\\" /Fd"DEBUG\VC120.PDB" /FR"Debug\\" /Gd /TP /analyze- C:\USERS\KBRONIK.ANNASACH\DESKTOP\WORKING FOLDER\TEST FEBIO\FEBIOSOURCEEXTENDEDVERSION2\FEBIOSOURCE2EXTENDED\FEBIOMECH\FESOLIDDOMAINFACTORY.CPP
^C:\USERS\KBRONIK.ANNASACH\DESKTOP\WORKING FOLDER\TEST FEBIO\FEBIOSOURCEEXTENDEDVERSION2\FEBIOSOURCE2EXTENDED\FEBIOMECH\FESOLIDSOLVER.CPP
/c /ZI /nologo /W3 /WX- /Od /Oy- /D WIN32 /D _DEBUG /D _LIB /D _UNICODE /D UNICODE /Gm /EHsc /RTC1 /MDd /GS /fp:precise /Zc:wchar_t /Zc:forScope /Fo"DEBUG\\" /Fd"DEBUG\VC120.PDB" /FR"Debug\\" /Gd /TP /analyze- C:\USERS\KBRONIK.ANNASACH\DESKTOP\WORKING FOLDER\TEST FEBIO\FEBIOSOURCEEXTENDEDVERSION2\FEBIOSOURCE2EXTENDED\FEBIOMECH\FESOLIDSOLVER.CPP
^C:\USERS\KBRONIK.ANNASACH\DESKTOP\WORKING FOLDER\TEST FEBIO\FEBIOSOURCEEXTENDEDVERSION2\FEBIOSOURCE2EXTENDED\FEBIOMECH\FESPHERICALFIBERDISTRIBUTION.CPP
/c /ZI /nologo /W3 /WX- /Od /Oy- /D WIN32 /D _DEBUG /D _LIB /D _UNICODE /D UNICODE /Gm /EHsc /RTC1 /MDd /GS /fp:precise /Zc:wchar_t /Zc:forScope /Fo"DEBUG\\" /Fd"DEBUG\VC120.PDB" /FR"Debug\\" /Gd /TP /analyze- C:\USERS\KBRONIK.ANNASACH\DESKTOP\WORKING FOLDER\TEST FEBIO\FEBIOSOURCEEXTENDEDVERSION2\FEBIOSOURCE2EXTENDED\FEBIOMECH\FESPHERICALFIBERDISTRIBUTION.CPP
^C:\USERS\KBRONIK.ANNASACH\DESKTOP\WORKING FOLDER\TEST FEBIO\FEBIOSOURCEEXTENDEDVERSION2\FEBIOSOURCE2EXTENDED\FEBIOMECH\FESPRINGMATERIAL.CPP
/c /ZI /nologo /W3 /WX- /Od /Oy- /D WIN32 /D _DEBUG /D _LIB /D _UNICODE /D UNICODE /Gm /EHsc /RTC1 /MDd /GS /fp:precise /Zc:wchar_t /Zc:forScope /Fo"DEBUG\\" /Fd"DEBUG\VC120.PDB" /FR"Debug\\" /Gd /TP /analyze- C:\USERS\KBRONIK.ANNASACH\DESKTOP\WORKING FOLDER\TEST FEBIO\FEBIOSOURCEEXTENDEDVERSION2\FEBIOSOURCE2EXTENDED\FEBIOMECH\FESPRINGMATERIAL.CPP
^C:\USERS\KBRONIK.ANNASACH\DESKTOP\WORKING FOLDER\TEST FEBIO\FEBIOSOURCEEXTENDEDVERSION2\FEBIOSOURCE2EXTENDED\FEBIOMECH\FESPRPROJECTION.CPP
/c /ZI /nologo /W3 /WX- /Od /Oy- /D WIN32 /D _DEBUG /D _LIB /D _UNICODE /D UNICODE /Gm /EHsc /RTC1 /MDd /GS /fp:precise /Zc:wchar_t /Zc:forScope /Fo"DEBUG\\" /Fd"DEBUG\VC120.PDB" /FR"Debug\\" /Gd /TP /analyze- C:\USERS\KBRONIK.ANNASACH\DESKTOP\WORKING FOLDER\TEST FEBIO\FEBIOSOURCEEXTENDEDVERSION2\FEBIOSOURCE2EXTENDED\FEBIOMECH\FESPRPROJECTION.CPP
^C:\USERS\KBRONIK.ANNASACH\DESKTOP\WORKING FOLDER\TEST FEBIO\FEBIOSOURCEEXTENDEDVERSION2\FEBIOSOURCE2EXTENDED\FEBIOMECH\FESTICKYINTERFACE.CPP
/c /ZI /nologo /W3 /WX- /Od /Oy- /D WIN32 /D _DEBUG /D _LIB /D _UNICODE /D UNICODE /Gm /EHsc /RTC1 /MDd /GS /fp:precise /Zc:wchar_t /Zc:forScope /Fo"DEBUG\\" /Fd"DEBUG\VC120.PDB" /FR"Debug\\" /Gd /TP /analyze- C:\USERS\KBRONIK.ANNASACH\DESKTOP\WORKING FOLDER\TEST FEBIO\FEBIOSOURCEEXTENDEDVERSION2\FEBIOSOURCE2EXTENDED\FEBIOMECH\FESTICKYINTERFACE.CPP
^C:\USERS\KBRONIK.ANNASACH\DESKTOP\WORKING FOLDER\TEST FEBIO\FEBIOSOURCEEXTENDEDVERSION2\FEBIOSOURCE2EXTENDED\FEBIOMECH\FESTIFFNESSMATRIX.CPP
/c /ZI /nologo /W3 /WX- /Od /Oy- /D WIN32 /D _DEBUG /D _LIB /D _UNICODE /D UNICODE /Gm /EHsc /RTC1 /MDd /GS /fp:precise /Zc:wchar_t /Zc:forScope /Fo"DEBUG\\" /Fd"DEBUG\VC120.PDB" /FR"Debug\\" /Gd /TP /analyze- C:\USERS\KBRONIK.ANNASACH\DESKTOP\WORKING FOLDER\TEST FEBIO\FEBIOSOURCEEXTENDEDVERSION2\FEBIOSOURCE2EXTENDED\FEBIOMECH\FESTIFFNESSMATRIX.CPP
^C:\USERS\KBRONIK.ANNASACH\DESKTOP\WORKING FOLDER\TEST FEBIO\FEBIOSOURCEEXTENDEDVERSION2\FEBIOSOURCE2EXTENDED\FEBIOMECH\FESTVENANTKIRCHHOFF.CPP
/c /ZI /nologo /W3 /WX- /Od /Oy- /D WIN32 /D _DEBUG /D _LIB /D _UNICODE /D UNICODE /Gm /EHsc /RTC1 /MDd /GS /fp:precise /Zc:wchar_t /Zc:forScope /Fo"DEBUG\\" /Fd"DEBUG\VC120.PDB" /FR"Debug\\" /Gd /TP /analyze- C:\USERS\KBRONIK.ANNASACH\DESKTOP\WORKING FOLDER\TEST FEBIO\FEBIOSOURCEEXTENDEDVERSION2\FEBIOSOURCE2EXTENDED\FEBIOMECH\FESTVENANTKIRCHHOFF.CPP
^C:\USERS\KBRONIK.ANNASACH\DESKTOP\WORKING FOLDER\TEST FEBIO\FEBIOSOURCEEXTENDEDVERSION2\FEBIOSOURCE2EXTENDED\FEBIOMECH\FESURFACECONSTRAINT.CPP
/c /ZI /nologo /W3 /WX- /Od /Oy- /D WIN32 /D _DEBUG /D _LIB /D _UNICODE /D UNICODE /Gm /EHsc /RTC1 /MDd /GS /fp:precise /Zc:wchar_t /Zc:forScope /Fo"DEBUG\\" /Fd"DEBUG\VC120.PDB" /FR"Debug\\" /Gd /TP /analyze- C:\USERS\KBRONIK.ANNASACH\DESKTOP\WORKING FOLDER\TEST FEBIO\FEBIOSOURCEEXTENDEDVERSION2\FEBIOSOURCE2EXTENDED\FEBIOMECH\FESURFACECONSTRAINT.CPP
^C:\USERS\KBRONIK.ANNASACH\DESKTOP\WORKING FOLDER\TEST FEBIO\FEBIOSOURCEEXTENDEDVERSION2\FEBIOSOURCE2EXTENDED\FEBIOMECH\FETCNONLINEARORTHOTROPIC.CPP
/c /ZI /nologo /W3 /WX- /Od /Oy- /D WIN32 /D _DEBUG /D _LIB /D _UNICODE /D UNICODE /Gm /EHsc /RTC1 /MDd /GS /fp:precise /Zc:wchar_t /Zc:forScope /Fo"DEBUG\\" /Fd"DEBUG\VC120.PDB" /FR"Debug\\" /Gd /TP /analyze- C:\USERS\KBRONIK.ANNASACH\DESKTOP\WORKING FOLDER\TEST FEBIO\FEBIOSOURCEEXTENDEDVERSION2\FEBIOSOURCE2EXTENDED\FEBIOMECH\FETCNONLINEARORTHOTROPIC.CPP
^C:\USERS\KBRONIK.ANNASACH\DESKTOP\WORKING FOLDER\TEST FEBIO\FEBIOSOURCEEXTENDEDVERSION2\FEBIOSOURCE2EXTENDED\FEBIOMECH\FETENDONMATERIAL.CPP
/c /ZI /nologo /W3 /WX- /Od /Oy- /D WIN32 /D _DEBUG /D _LIB /D _UNICODE /D UNICODE /Gm /EHsc /RTC1 /MDd /GS /fp:precise /Zc:wchar_t /Zc:forScope /Fo"DEBUG\\" /Fd"DEBUG\VC120.PDB" /FR"Debug\\" /Gd /TP /analyze- C:\USERS\KBRONIK.ANNASACH\DESKTOP\WORKING FOLDER\TEST FEBIO\FEBIOSOURCEEXTENDEDVERSION2\FEBIOSOURCE2EXTENDED\FEBIOMECH\FETENDONMATERIAL.CPP
^C:\USERS\KBRONIK.ANNASACH\DESKTOP\WORKING FOLDER\TEST FEBIO\FEBIOSOURCEEXTENDEDVERSION2\FEBIOSOURCE2EXTENDED\FEBIOMECH\FETIEDCONTACTSURFACE.CPP
/c /ZI /nologo /W3 /WX- /Od /Oy- /D WIN32 /D _DEBUG /D _LIB /D _UNICODE /D UNICODE /Gm /EHsc /RTC1 /MDd /GS /fp:precise /Zc:wchar_t /Zc:forScope /Fo"DEBUG\\" /Fd"DEBUG\VC120.PDB" /FR"Debug\\" /Gd /TP /analyze- C:\USERS\KBRONIK.ANNASACH\DESKTOP\WORKING FOLDER\TEST FEBIO\FEBIOSOURCEEXTENDEDVERSION2\FEBIOSOURCE2EXTENDED\FEBIOMECH\FETIEDCONTACTSURFACE.CPP
^C:\USERS\KBRONIK.ANNASACH\DESKTOP\WORKING FOLDER\TEST FEBIO\FEBIOSOURCEEXTENDEDVERSION2\FEBIOSOURCE2EXTENDED\FEBIOMECH\FETIEDINTERFACE.CPP
/c /ZI /nologo /W3 /WX- /Od /Oy- /D WIN32 /D _DEBUG /D _LIB /D _UNICODE /D UNICODE /Gm /EHsc /RTC1 /MDd /GS /fp:precise /Zc:wchar_t /Zc:forScope /Fo"DEBUG\\" /Fd"DEBUG\VC120.PDB" /FR"Debug\\" /Gd /TP /analyze- C:\USERS\KBRONIK.ANNASACH\DESKTOP\WORKING FOLDER\TEST FEBIO\FEBIOSOURCEEXTENDEDVERSION2\FEBIOSOURCE2EXTENDED\FEBIOMECH\FETIEDINTERFACE.CPP
^C:\USERS\KBRONIK.ANNASACH\DESKTOP\WORKING FOLDER\TEST FEBIO\FEBIOSOURCEEXTENDEDVERSION2\FEBIOSOURCE2EXTENDED\FEBIOMECH\FETRACTIONLOAD.CPP
/c /ZI /nologo /W3 /WX- /Od /Oy- /D WIN32 /D _DEBUG /D _LIB /D _UNICODE /D UNICODE /Gm /EHsc /RTC1 /MDd /GS /fp:precise /Zc:wchar_t /Zc:forScope /Fo"DEBUG\\" /Fd"DEBUG\VC120.PDB" /FR"Debug\\" /Gd /TP /analyze- C:\USERS\KBRONIK.ANNASACH\DESKTOP\WORKING FOLDER\TEST FEBIO\FEBIOSOURCEEXTENDEDVERSION2\FEBIOSOURCE2EXTENDED\FEBIOMECH\FETRACTIONLOAD.CPP
^C:\USERS\KBRONIK.ANNASACH\DESKTOP\WORKING FOLDER\TEST FEBIO\FEBIOSOURCEEXTENDEDVERSION2\FEBIOSOURCE2EXTENDED\FEBIOMECH\FETRANSISOMOONEYRIVLIN.CPP
/c /ZI /nologo /W3 /WX- /Od /Oy- /D WIN32 /D _DEBUG /D _LIB /D _UNICODE /D UNICODE /Gm /EHsc /RTC1 /MDd /GS /fp:precise /Zc:wchar_t /Zc:forScope /Fo"DEBUG\\" /Fd"DEBUG\VC120.PDB" /FR"Debug\\" /Gd /TP /analyze- C:\USERS\KBRONIK.ANNASACH\DESKTOP\WORKING FOLDER\TEST FEBIO\FEBIOSOURCEEXTENDEDVERSION2\FEBIOSOURCE2EXTENDED\FEBIOMECH\FETRANSISOMOONEYRIVLIN.CPP
^C:\USERS\KBRONIK.ANNASACH\DESKTOP\WORKING FOLDER\TEST FEBIO\FEBIOSOURCEEXTENDEDVERSION2\FEBIOSOURCE2EXTENDED\FEBIOMECH\FETRANSISOVERONDAWESTMANN.CPP
/c /ZI /nologo /W3 /WX- /Od /Oy- /D WIN32 /D _DEBUG /D _LIB /D _UNICODE /D UNICODE /Gm /EHsc /RTC1 /MDd /GS /fp:precise /Zc:wchar_t /Zc:forScope /Fo"DEBUG\\" /Fd"DEBUG\VC120.PDB" /FR"Debug\\" /Gd /TP /analyze- C:\USERS\KBRONIK.ANNASACH\DESKTOP\WORKING FOLDER\TEST FEBIO\FEBIOSOURCEEXTENDEDVERSION2\FEBIOSOURCE2EXTENDED\FEBIOMECH\FETRANSISOVERONDAWESTMANN.CPP
^C:\USERS\KBRONIK.ANNASACH\DESKTOP\WORKING FOLDER\TEST FEBIO\FEBIOSOURCEEXTENDEDVERSION2\FEBIOSOURCE2EXTENDED\FEBIOMECH\FETRANSVERSELYISOTROPIC.CPP
/c /ZI /nologo /W3 /WX- /Od /Oy- /D WIN32 /D _DEBUG /D _LIB /D _UNICODE /D UNICODE /Gm /EHsc /RTC1 /MDd /GS /fp:precise /Zc:wchar_t /Zc:forScope /Fo"DEBUG\\" /Fd"DEBUG\VC120.PDB" /FR"Debug\\" /Gd /TP /analyze- C:\USERS\KBRONIK.ANNASACH\DESKTOP\WORKING FOLDER\TEST FEBIO\FEBIOSOURCEEXTENDEDVERSION2\FEBIOSOURCE2EXTENDED\FEBIOMECH\FETRANSVERSELYISOTROPIC.CPP
^C:\USERS\KBRONIK.ANNASACH\DESKTOP\WORKING FOLDER\TEST FEBIO\FEBIOSOURCEEXTENDEDVERSION2\FEBIOSOURCE2EXTENDED\FEBIOMECH\FETRUSSMATERIAL.CPP
/c /ZI /nologo /W3 /WX- /Od /Oy- /D WIN32 /D _DEBUG /D _LIB /D _UNICODE /D UNICODE /Gm /EHsc /RTC1 /MDd /GS /fp:precise /Zc:wchar_t /Zc:forScope /Fo"DEBUG\\" /Fd"DEBUG\VC120.PDB" /FR"Debug\\" /Gd /TP /analyze- C:\USERS\KBRONIK.ANNASACH\DESKTOP\WORKING FOLDER\TEST FEBIO\FEBIOSOURCEEXTENDEDVERSION2\FEBIOSOURCE2EXTENDED\FEBIOMECH\FETRUSSMATERIAL.CPP
^C:\USERS\KBRONIK.ANNASACH\DESKTOP\WORKING FOLDER\TEST FEBIO\FEBIOSOURCEEXTENDEDVERSION2\FEBIOSOURCE2EXTENDED\FEBIOMECH\FEUDGHEXDOMAIN.CPP
/c /ZI /nologo /W3 /WX- /Od /Oy- /D WIN32 /D _DEBUG /D _LIB /D _UNICODE /D UNICODE /Gm /EHsc /RTC1 /MDd /GS /fp:precise /Zc:wchar_t /Zc:forScope /Fo"DEBUG\\" /Fd"DEBUG\VC120.PDB" /FR"Debug\\" /Gd /TP /analyze- C:\USERS\KBRONIK.ANNASACH\DESKTOP\WORKING FOLDER\TEST FEBIO\FEBIOSOURCEEXTENDEDVERSION2\FEBIOSOURCE2EXTENDED\FEBIOMECH\FEUDGHEXDOMAIN.CPP
^C:\USERS\KBRONIK.ANNASACH\DESKTOP\WORKING FOLDER\TEST FEBIO\FEBIOSOURCEEXTENDEDVERSION2\FEBIOSOURCE2EXTENDED\FEBIOMECH\FEUNCOUPLEDACTIVECONTRACTION.CPP
/c /ZI /nologo /W3 /WX- /Od /Oy- /D WIN32 /D _DEBUG /D _LIB /D _UNICODE /D UNICODE /Gm /EHsc /RTC1 /MDd /GS /fp:precise /Zc:wchar_t /Zc:forScope /Fo"DEBUG\\" /Fd"DEBUG\VC120.PDB" /FR"Debug\\" /Gd /TP /analyze- C:\USERS\KBRONIK.ANNASACH\DESKTOP\WORKING FOLDER\TEST FEBIO\FEBIOSOURCEEXTENDEDVERSION2\FEBIOSOURCE2EXTENDED\FEBIOMECH\FEUNCOUPLEDACTIVECONTRACTION.CPP
^C:\USERS\KBRONIK.ANNASACH\DESKTOP\WORKING FOLDER\TEST FEBIO\FEBIOSOURCEEXTENDEDVERSION2\FEBIOSOURCE2EXTENDED\FEBIOMECH\FEUNCOUPLEDELASTICMIXTURE.CPP
/c /ZI /nologo /W3 /WX- /Od /Oy- /D WIN32 /D _DEBUG /D _LIB /D _UNICODE /D UNICODE /Gm /EHsc /RTC1 /MDd /GS /fp:precise /Zc:wchar_t /Zc:forScope /Fo"DEBUG\\" /Fd"DEBUG\VC120.PDB" /FR"Debug\\" /Gd /TP /analyze- C:\USERS\KBRONIK.ANNASACH\DESKTOP\WORKING FOLDER\TEST FEBIO\FEBIOSOURCEEXTENDEDVERSION2\FEBIOSOURCE2EXTENDED\FEBIOMECH\FEUNCOUPLEDELASTICMIXTURE.CPP
^C:\USERS\KBRONIK.ANNASACH\DESKTOP\WORKING FOLDER\TEST FEBIO\FEBIOSOURCEEXTENDEDVERSION2\FEBIOSOURCE2EXTENDED\FEBIOMECH\FEUNCOUPLEDMATERIAL.CPP
/c /ZI /nologo /W3 /WX- /Od /Oy- /D WIN32 /D _DEBUG /D _LIB /D _UNICODE /D UNICODE /Gm /EHsc /RTC1 /MDd /GS /fp:precise /Zc:wchar_t /Zc:forScope /Fo"DEBUG\\" /Fd"DEBUG\VC120.PDB" /FR"Debug\\" /Gd /TP /analyze- C:\USERS\KBRONIK.ANNASACH\DESKTOP\WORKING FOLDER\TEST FEBIO\FEBIOSOURCEEXTENDEDVERSION2\FEBIOSOURCE2EXTENDED\FEBIOMECH\FEUNCOUPLEDMATERIAL.CPP
^C:\USERS\KBRONIK.ANNASACH\DESKTOP\WORKING FOLDER\TEST FEBIO\FEBIOSOURCEEXTENDEDVERSION2\FEBIOSOURCE2EXTENDED\FEBIOMECH\FEUNCOUPLEDVISCOELASTICMATERIAL.CPP
/c /ZI /nologo /W3 /WX- /Od /Oy- /D WIN32 /D _DEBUG /D _LIB /D _UNICODE /D UNICODE /Gm /EHsc /RTC1 /MDd /GS /fp:precise /Zc:wchar_t /Zc:forScope /Fo"DEBUG\\" /Fd"DEBUG\VC120.PDB" /FR"Debug\\" /Gd /TP /analyze- C:\USERS\KBRONIK.ANNASACH\DESKTOP\WORKING FOLDER\TEST FEBIO\FEBIOSOURCEEXTENDEDVERSION2\FEBIOSOURCE2EXTENDED\FEBIOMECH\FEUNCOUPLEDVISCOELASTICMATERIAL.CPP
^C:\USERS\KBRONIK.ANNASACH\DESKTOP\WORKING FOLDER\TEST FEBIO\FEBIOSOURCEEXTENDEDVERSION2\FEBIOSOURCE2EXTENDED\FEBIOMECH\FEUT4DOMAIN.CPP
/c /ZI /nologo /W3 /WX- /Od /Oy- /D WIN32 /D _DEBUG /D _LIB /D _UNICODE /D UNICODE /Gm /EHsc /RTC1 /MDd /GS /fp:precise /Zc:wchar_t /Zc:forScope /Fo"DEBUG\\" /Fd"DEBUG\VC120.PDB" /FR"Debug\\" /Gd /TP /analyze- C:\USERS\KBRONIK.ANNASACH\DESKTOP\WORKING FOLDER\TEST FEBIO\FEBIOSOURCEEXTENDEDVERSION2\FEBIOSOURCE2EXTENDED\FEBIOMECH\FEUT4DOMAIN.CPP
^C:\USERS\KBRONIK.ANNASACH\DESKTOP\WORKING FOLDER\TEST FEBIO\FEBIOSOURCEEXTENDEDVERSION2\FEBIOSOURCE2EXTENDED\FEBIOMECH\FEVERONDAWESTMANN.CPP
/c /ZI /nologo /W3 /WX- /Od /Oy- /D WIN32 /D _DEBUG /D _LIB /D _UNICODE /D UNICODE /Gm /EHsc /RTC1 /MDd /GS /fp:precise /Zc:wchar_t /Zc:forScope /Fo"DEBUG\\" /Fd"DEBUG\VC120.PDB" /FR"Debug\\" /Gd /TP /analyze- C:\USERS\KBRONIK.ANNASACH\DESKTOP\WORKING FOLDER\TEST FEBIO\FEBIOSOURCEEXTENDEDVERSION2\FEBIOSOURCE2EXTENDED\FEBIOMECH\FEVERONDAWESTMANN.CPP
^C:\USERS\KBRONIK.ANNASACH\DESKTOP\WORKING FOLDER\TEST FEBIO\FEBIOSOURCEEXTENDEDVERSION2\FEBIOSOURCE2EXTENDED\FEBIOMECH\FEVISCOELASTICMATERIAL.CPP
/c /ZI /nologo /W3 /WX- /Od /Oy- /D WIN32 /D _DEBUG /D _LIB /D _UNICODE /D UNICODE /Gm /EHsc /RTC1 /MDd /GS /fp:precise /Zc:wchar_t /Zc:forScope /Fo"DEBUG\\" /Fd"DEBUG\VC120.PDB" /FR"Debug\\" /Gd /TP /analyze- C:\USERS\KBRONIK.ANNASACH\DESKTOP\WORKING FOLDER\TEST FEBIO\FEBIOSOURCEEXTENDEDVERSION2\FEBIOSOURCE2EXTENDED\FEBIOMECH\FEVISCOELASTICMATERIAL.CPP
^C:\USERS\KBRONIK.ANNASACH\DESKTOP\WORKING FOLDER\TEST FEBIO\FEBIOSOURCEEXTENDEDVERSION2\FEBIOSOURCE2EXTENDED\FEBIOMECH\FEVONMISESPLASTICITY.CPP
/c /ZI /nologo /W3 /WX- /Od /Oy- /D WIN32 /D _DEBUG /D _LIB /D _UNICODE /D UNICODE /Gm /EHsc /RTC1 /MDd /GS /fp:precise /Zc:wchar_t /Zc:forScope /Fo"DEBUG\\" /Fd"DEBUG\VC120.PDB" /FR"Debug\\" /Gd /TP /analyze- C:\USERS\KBRONIK.ANNASACH\DESKTOP\WORKING FOLDER\TEST FEBIO\FEBIOSOURCEEXTENDEDVERSION2\FEBIOSOURCE2EXTENDED\FEBIOMECH\FEVONMISESPLASTICITY.CPP
