^C:\USERS\KBRONIK.ANNASACH\DESKTOP\WORKING FOLDER\TEST FEBIO\FEBIOSOURCEEXTENDEDVERSION2\FEBIOSOURCE2EXTENDED\VS2013\FEBIOHEAT\DEBUG\FEBIOHEAT.OBJ|C:\USERS\KBRONIK.ANNASACH\DESKTOP\WORKING FOLDER\TEST FEBIO\FEBIOSOURCEEXTENDEDVERSION2\FEBIOSOURCE2EXTENDED\VS2013\FEBIOHEAT\DEBUG\FECONVECTIVEHEATFLUX.OBJ|C:\USERS\KBRONIK.ANNASACH\DESKTOP\WORKING FOLDER\TEST FEBIO\FEBIOSOURCEEXTENDEDVERSION2\FEBIOSOURCE2EXTENDED\VS2013\FEBIOHEAT\DEBUG\FECOUPLEDHEATSOLIDSOLVER.OBJ|C:\USERS\KBRONIK.ANNASACH\DESKTOP\WORKING FOLDER\TEST FEBIO\FEBIOSOURCEEXTENDEDVERSION2\FEBIOSOURCE2EXTENDED\VS2013\FEBIOHEAT\DEBUG\FEHEATDOMAINFACTORY.OBJ|C:\USERS\KBRONIK.ANNASACH\DESKTOP\WORKING FOLDER\TEST FEBIO\FEBIOSOURCEEXTENDEDVERSION2\FEBIOSOURCE2EXTENDED\VS2013\FEBIOHEAT\DEBUG\FEHEATFLUX.OBJ|C:\USERS\KBRONIK.ANNASACH\DESKTOP\WORKING FOLDER\TEST FEBIO\FEBIOSOURCEEXTENDEDVERSION2\FEBIOSOURCE2EXTENDED\VS2013\FEBIOHEAT\DEBUG\FEHEATSOLIDDOMAIN.OBJ|C:\USERS\KBRONIK.ANNASACH\DESKTOP\WORKING FOLDER\TEST FEBIO\FEBIOSOURCEEXTENDEDVERSION2\FEBIOSOURCE2EXTENDED\VS2013\FEBIOHEAT\DEBUG\FEHEATSOLVER.OBJ|C:\USERS\KBRONIK.ANNASACH\DESKTOP\WORKING FOLDER\TEST FEBIO\FEBIOSOURCEEXTENDEDVERSION2\FEBIOSOURCE2EXTENDED\VS2013\FEBIOHEAT\DEBUG\FEHEATSOURCE.OBJ|C:\USERS\KBRONIK.ANNASACH\DESKTOP\WORKING FOLDER\TEST FEBIO\FEBIOSOURCEEXTENDEDVERSION2\FEBIOSOURCE2EXTENDED\VS2013\FEBIOHEAT\DEBUG\FEHEATSTIFFNESSMATRIX.OBJ|C:\USERS\KBRONIK.ANNASACH\DESKTOP\WORKING FOLDER\TEST FEBIO\FEBIOSOURCEEXTENDEDVERSION2\FEBIOSOURCE2EXTENDED\VS2013\FEBIOHEAT\DEBUG\FEHEATTRANSFERANALYSIS.OBJ|C:\USERS\KBRONIK.ANNASACH\DESKTOP\WORKING FOLDER\TEST FEBIO\FEBIOSOURCEEXTENDEDVERSION2\FEBIOSOURCE2EXTENDED\VS2013\FEBIOHEAT\DEBUG\FEISOTROPICFOURIER.OBJ|C:\USERS\KBRONIK.ANNASACH\DESKTOP\WORKING FOLDER\TEST FEBIO\FEBIOSOURCEEXTENDEDVERSION2\FEBIOSOURCE2EXTENDED\VS2013\FEBIOHEAT\DEBUG\FEPLOTHEATFLUX.OBJ|C:\USERS\KBRONIK.ANNASACH\DESKTOP\WORKING FOLDER\TEST FEBIO\FEBIOSOURCEEXTENDEDVERSION2\FEBIOSOURCE2EXTENDED\VS2013\FEBIOHEAT\DEBUG\FEPLOTNODETEMPERATURE.OBJ
C:\WINDOWS\SYSTEM32\TZRES.DLL
C:\USERS\KBRONIK.ANNASACH\DESKTOP\WORKING FOLDER\TEST FEBIO\FEBIOSOURCEEXTENDEDVERSION2\FEBIOSOURCE2EXTENDED\VS2013\FEBIOHEAT\DEBUG\FEBIOHEAT.OBJ
C:\USERS\KBRONIK.ANNASACH\DESKTOP\WORKING FOLDER\TEST FEBIO\FEBIOSOURCEEXTENDEDVERSION2\FEBIOSOURCE2EXTENDED\VS2013\FEBIOHEAT\DEBUG\FECONVECTIVEHEATFLUX.OBJ
C:\USERS\KBRONIK.ANNASACH\DESKTOP\WORKING FOLDER\TEST FEBIO\FEBIOSOURCEEXTENDEDVERSION2\FEBIOSOURCE2EXTENDED\VS2013\FEBIOHEAT\DEBUG\FECOUPLEDHEATSOLIDSOLVER.OBJ
C:\USERS\KBRONIK.ANNASACH\DESKTOP\WORKING FOLDER\TEST FEBIO\FEBIOSOURCEEXTENDEDVERSION2\FEBIOSOURCE2EXTENDED\VS2013\FEBIOHEAT\DEBUG\FEHEATDOMAINFACTORY.OBJ
C:\USERS\KBRONIK.ANNASACH\DESKTOP\WORKING FOLDER\TEST FEBIO\FEBIOSOURCEEXTENDEDVERSION2\FEBIOSOURCE2EXTENDED\VS2013\FEBIOHEAT\DEBUG\FEHEATFLUX.OBJ
C:\USERS\KBRONIK.ANNASACH\DESKTOP\WORKING FOLDER\TEST FEBIO\FEBIOSOURCEEXTENDEDVERSION2\FEBIOSOURCE2EXTENDED\VS2013\FEBIOHEAT\DEBUG\FEHEATSOLIDDOMAIN.OBJ
C:\USERS\KBRONIK.ANNASACH\DESKTOP\WORKING FOLDER\TEST FEBIO\FEBIOSOURCEEXTENDEDVERSION2\FEBIOSOURCE2EXTENDED\VS2013\FEBIOHEAT\DEBUG\FEHEATSOLVER.OBJ
C:\USERS\KBRONIK.ANNASACH\DESKTOP\WORKING FOLDER\TEST FEBIO\FEBIOSOURCEEXTENDEDVERSION2\FEBIOSOURCE2EXTENDED\VS2013\FEBIOHEAT\DEBUG\FEHEATSOURCE.OBJ
C:\USERS\KBRONIK.ANNASACH\DESKTOP\WORKING FOLDER\TEST FEBIO\FEBIOSOURCEEXTENDEDVERSION2\FEBIOSOURCE2EXTENDED\VS2013\FEBIOHEAT\DEBUG\FEHEATSTIFFNESSMATRIX.OBJ
C:\USERS\KBRONIK.ANNASACH\DESKTOP\WORKING FOLDER\TEST FEBIO\FEBIOSOURCEEXTENDEDVERSION2\FEBIOSOURCE2EXTENDED\VS2013\FEBIOHEAT\DEBUG\FEHEATTRANSFERANALYSIS.OBJ
C:\USERS\KBRONIK.ANNASACH\DESKTOP\WORKING FOLDER\TEST FEBIO\FEBIOSOURCEEXTENDEDVERSION2\FEBIOSOURCE2EXTENDED\VS2013\FEBIOHEAT\DEBUG\FEISOTROPICFOURIER.OBJ
C:\USERS\KBRONIK.ANNASACH\DESKTOP\WORKING FOLDER\TEST FEBIO\FEBIOSOURCEEXTENDEDVERSION2\FEBIOSOURCE2EXTENDED\VS2013\FEBIOHEAT\DEBUG\FEPLOTHEATFLUX.OBJ
C:\USERS\KBRONIK.ANNASACH\DESKTOP\WORKING FOLDER\TEST FEBIO\FEBIOSOURCEEXTENDEDVERSION2\FEBIOSOURCE2EXTENDED\VS2013\FEBIOHEAT\DEBUG\FEPLOTNODETEMPERATURE.OBJ
C:\WINDOWS\GLOBALIZATION\SORTING\SORTDEFAULT.NLS
