^C:\USERS\KEVIN\DOCUMENTS\FEBIOSOURCEXXXX\FEBIOOPT\FEBIOOPT.CPP
/c /I"C:\Users\Kevin\Documents\levmar-2.6" /ZI /nologo /W3 /WX- /Od /Oy- /D WIN32 /D HAVE_LEVMAR /D _DEBUG /D _WINDOWS /D _USRDLL /D FEBIOOPT_EXPORTS /D _CRT_SECURE_NO_WARNINGS /D _UNICODE /D UNICODE /Gm /EHsc /RTC1 /MDd /GS /fp:precise /Zc:wchar_t /Zc:forScope /Fo"DEBUG\\" /Fd"DEBUG\VC120.PDB" /FR"Debug\\" /Gd /TP /analyze- C:\USERS\KEVIN\DOCUMENTS\FEBIOSOURCEXXXX\FEBIOOPT\FEBIOOPT.CPP
^C:\USERS\KEVIN\DOCUMENTS\FEBIOSOURCEXXXX\FEBIOOPT\FECONSTRAINEDLMOPTIMIZEMETHOD.CPP
/c /I"C:\Users\Kevin\Documents\levmar-2.6" /ZI /nologo /W3 /WX- /Od /Oy- /D WIN32 /D HAVE_LEVMAR /D _DEBUG /D _WINDOWS /D _USRDLL /D FEBIOOPT_EXPORTS /D _CRT_SECURE_NO_WARNINGS /D _UNICODE /D UNICODE /Gm /EHsc /RTC1 /MDd /GS /fp:precise /Zc:wchar_t /Zc:forScope /Fo"DEBUG\\" /Fd"DEBUG\VC120.PDB" /FR"Debug\\" /Gd /TP /analyze- C:\USERS\KEVIN\DOCUMENTS\FEBIOSOURCEXXXX\FEBIOOPT\FECONSTRAINEDLMOPTIMIZEMETHOD.CPP
^C:\USERS\KEVIN\DOCUMENTS\FEBIOSOURCEXXXX\FEBIOOPT\FEOPTIMIZE.CPP
/c /I"C:\Users\Kevin\Documents\levmar-2.6" /ZI /nologo /W3 /WX- /Od /Oy- /D WIN32 /D HAVE_LEVMAR /D _DEBUG /D _WINDOWS /D _USRDLL /D FEBIOOPT_EXPORTS /D _CRT_SECURE_NO_WARNINGS /D _UNICODE /D UNICODE /Gm /EHsc /RTC1 /MDd /GS /fp:precise /Zc:wchar_t /Zc:forScope /Fo"DEBUG\\" /Fd"DEBUG\VC120.PDB" /FR"Debug\\" /Gd /TP /analyze- C:\USERS\KEVIN\DOCUMENTS\FEBIOSOURCEXXXX\FEBIOOPT\FEOPTIMIZE.CPP
^C:\USERS\KEVIN\DOCUMENTS\FEBIOSOURCEXXXX\FEBIOOPT\FEOPTIMIZER.CPP
/c /I"C:\Users\Kevin\Documents\levmar-2.6" /ZI /nologo /W3 /WX- /Od /Oy- /D WIN32 /D HAVE_LEVMAR /D _DEBUG /D _WINDOWS /D _USRDLL /D FEBIOOPT_EXPORTS /D _CRT_SECURE_NO_WARNINGS /D _UNICODE /D UNICODE /Gm /EHsc /RTC1 /MDd /GS /fp:precise /Zc:wchar_t /Zc:forScope /Fo"DEBUG\\" /Fd"DEBUG\VC120.PDB" /FR"Debug\\" /Gd /TP /analyze- C:\USERS\KEVIN\DOCUMENTS\FEBIOSOURCEXXXX\FEBIOOPT\FEOPTIMIZER.CPP
^C:\USERS\KEVIN\DOCUMENTS\FEBIOSOURCEXXXX\FEBIOOPT\FELMOPTIMIZEMETHOD.CPP
/c /I"C:\Users\Kevin\Documents\levmar-2.6" /ZI /nologo /W3 /WX- /Od /Oy- /D WIN32 /D HAVE_LEVMAR /D _DEBUG /D _WINDOWS /D _USRDLL /D FEBIOOPT_EXPORTS /D _CRT_SECURE_NO_WARNINGS /D _UNICODE /D UNICODE /Gm /EHsc /RTC1 /MDd /GS /fp:precise /Zc:wchar_t /Zc:forScope /Fo"DEBUG\\" /Fd"DEBUG\VC120.PDB" /FR"Debug\\" /Gd /TP /analyze- C:\USERS\KEVIN\DOCUMENTS\FEBIOSOURCEXXXX\FEBIOOPT\FELMOPTIMIZEMETHOD.CPP
^C:\USERS\KEVIN\DOCUMENTS\FEBIOSOURCEXXXX\FEBIOOPT\FEPOWELLOPTIMIZEMETHOD.CPP
/c /I"C:\Users\Kevin\Documents\levmar-2.6" /ZI /nologo /W3 /WX- /Od /Oy- /D WIN32 /D HAVE_LEVMAR /D _DEBUG /D _WINDOWS /D _USRDLL /D FEBIOOPT_EXPORTS /D _CRT_SECURE_NO_WARNINGS /D _UNICODE /D UNICODE /Gm /EHsc /RTC1 /MDd /GS /fp:precise /Zc:wchar_t /Zc:forScope /Fo"DEBUG\\" /Fd"DEBUG\VC120.PDB" /FR"Debug\\" /Gd /TP /analyze- C:\USERS\KEVIN\DOCUMENTS\FEBIOSOURCEXXXX\FEBIOOPT\FEPOWELLOPTIMIZEMETHOD.CPP
^C:\USERS\KEVIN\DOCUMENTS\FEBIOSOURCEXXXX\FEBIOOPT\FESCANOPTIMIZEMETHOD.CPP
/c /I"C:\Users\Kevin\Documents\levmar-2.6" /ZI /nologo /W3 /WX- /Od /Oy- /D WIN32 /D HAVE_LEVMAR /D _DEBUG /D _WINDOWS /D _USRDLL /D FEBIOOPT_EXPORTS /D _CRT_SECURE_NO_WARNINGS /D _UNICODE /D UNICODE /Gm /EHsc /RTC1 /MDd /GS /fp:precise /Zc:wchar_t /Zc:forScope /Fo"DEBUG\\" /Fd"DEBUG\VC120.PDB" /FR"Debug\\" /Gd /TP /analyze- C:\USERS\KEVIN\DOCUMENTS\FEBIOSOURCEXXXX\FEBIOOPT\FESCANOPTIMIZEMETHOD.CPP
