^C:\USERS\KBRONIK.ANNASACH\DESKTOP\WORKING FOLDER\TEST FEBIO\FEBIOSOURCEEXTENDEDVERSION2\FEBIOSOURCE2EXTENDED\VS2013\FEBIOLIB\DEBUG\FEBIOMODEL.OBJ|C:\USERS\KBRONIK.ANNASACH\DESKTOP\WORKING FOLDER\TEST FEBIO\FEBIOSOURCEEXTENDEDVERSION2\FEBIOSOURCE2EXTENDED\VS2013\FEBIOLIB\DEBUG\FEBOX.OBJ|C:\USERS\KBRONIK.ANNASACH\DESKTOP\WORKING FOLDER\TEST FEBIO\FEBIOSOURCEEXTENDEDVERSION2\FEBIOSOURCE2EXTENDED\VS2013\FEBIOLIB\DEBUG\GETAPPPATH.OBJ|C:\USERS\KBRONIK.ANNASACH\DESKTOP\WORKING FOLDER\TEST FEBIO\FEBIOSOURCEEXTENDEDVERSION2\FEBIOSOURCE2EXTENDED\VS2013\FEBIOLIB\DEBUG\HELLO.OBJ|C:\USERS\KBRONIK.ANNASACH\DESKTOP\WORKING FOLDER\TEST FEBIO\FEBIOSOURCEEXTENDEDVERSION2\FEBIOSOURCE2EXTENDED\VS2013\FEBIOLIB\DEBUG\INITLIBRARY.OBJ|C:\USERS\KBRONIK.ANNASACH\DESKTOP\WORKING FOLDER\TEST FEBIO\FEBIOSOURCEEXTENDEDVERSION2\FEBIOSOURCE2EXTENDED\VS2013\FEBIOLIB\DEBUG\INPUT.OBJ|C:\USERS\KBRONIK.ANNASACH\DESKTOP\WORKING FOLDER\TEST FEBIO\FEBIOSOURCEEXTENDEDVERSION2\FEBIOSOURCE2EXTENDED\VS2013\FEBIOLIB\DEBUG\STDAFX.OBJ|C:\USERS\KBRONIK.ANNASACH\DESKTOP\WORKING FOLDER\TEST FEBIO\FEBIOSOURCEEXTENDEDVERSION2\FEBIOSOURCE2EXTENDED\VS2013\FEBIOLIB\DEBUG\VALIDATE.OBJ
C:\WINDOWS\SYSTEM32\TZRES.DLL
C:\USERS\KBRONIK.ANNASACH\DESKTOP\WORKING FOLDER\TEST FEBIO\FEBIOSOURCEEXTENDEDVERSION2\FEBIOSOURCE2EXTENDED\VS2013\FEBIOLIB\DEBUG\FEBIOMODEL.OBJ
C:\USERS\KBRONIK.ANNASACH\DESKTOP\WORKING FOLDER\TEST FEBIO\FEBIOSOURCEEXTENDEDVERSION2\FEBIOSOURCE2EXTENDED\VS2013\FEBIOLIB\DEBUG\FEBOX.OBJ
C:\USERS\KBRONIK.ANNASACH\DESKTOP\WORKING FOLDER\TEST FEBIO\FEBIOSOURCEEXTENDEDVERSION2\FEBIOSOURCE2EXTENDED\VS2013\FEBIOLIB\DEBUG\GETAPPPATH.OBJ
C:\USERS\KBRONIK.ANNASACH\DESKTOP\WORKING FOLDER\TEST FEBIO\FEBIOSOURCEEXTENDEDVERSION2\FEBIOSOURCE2EXTENDED\VS2013\FEBIOLIB\DEBUG\HELLO.OBJ
C:\USERS\KBRONIK.ANNASACH\DESKTOP\WORKING FOLDER\TEST FEBIO\FEBIOSOURCEEXTENDEDVERSION2\FEBIOSOURCE2EXTENDED\VS2013\FEBIOLIB\DEBUG\INITLIBRARY.OBJ
C:\USERS\KBRONIK.ANNASACH\DESKTOP\WORKING FOLDER\TEST FEBIO\FEBIOSOURCEEXTENDEDVERSION2\FEBIOSOURCE2EXTENDED\VS2013\FEBIOLIB\DEBUG\INPUT.OBJ
C:\USERS\KBRONIK.ANNASACH\DESKTOP\WORKING FOLDER\TEST FEBIO\FEBIOSOURCEEXTENDEDVERSION2\FEBIOSOURCE2EXTENDED\VS2013\FEBIOLIB\DEBUG\STDAFX.OBJ
C:\USERS\KBRONIK.ANNASACH\DESKTOP\WORKING FOLDER\TEST FEBIO\FEBIOSOURCEEXTENDEDVERSION2\FEBIOSOURCE2EXTENDED\VS2013\FEBIOLIB\DEBUG\VALIDATE.OBJ
C:\WINDOWS\GLOBALIZATION\SORTING\SORTDEFAULT.NLS
