^C:\USERS\KBRONIK.ANNASACH\DESKTOP\WORKING FOLDER\TEST FEBIO\FEBIOSOURCEEXTENDEDVERSION2\FEBIOSOURCE2EXTENDED\FEBIOOPT\FEBIOOPT.CPP
/c /I"C:\Users\kbronik.ANNASACH\Documents\levmar-2.6" /ZI /nologo /W3 /WX- /Od /Oy- /D WIN32 /D HAVE_LEVMAR /D _DEBUG /D _WINDOWS /D _USRDLL /D FEBIOOPT_EXPORTS /D _CRT_SECURE_NO_WARNINGS /D _UNICODE /D UNICODE /Gm /EHsc /RTC1 /MDd /GS /fp:precise /Zc:wchar_t /Zc:forScope /Fo"DEBUG\\" /Fd"DEBUG\VC120.PDB" /FR"Debug\\" /Gd /TP /analyze- C:\USERS\KBRONIK.ANNASACH\DESKTOP\WORKING FOLDER\TEST FEBIO\FEBIOSOURCEEXTENDEDVERSION2\FEBIOSOURCE2EXTENDED\FEBIOOPT\FEBIOOPT.CPP
^C:\USERS\KBRONIK.ANNASACH\DESKTOP\WORKING FOLDER\TEST FEBIO\FEBIOSOURCEEXTENDEDVERSION2\FEBIOSOURCE2EXTENDED\FEBIOOPT\FECONSTRAINEDLMOPTIMIZEMETHOD.CPP
/c /I"C:\Users\kbronik.ANNASACH\Documents\levmar-2.6" /ZI /nologo /W3 /WX- /Od /Oy- /D WIN32 /D HAVE_LEVMAR /D _DEBUG /D _WINDOWS /D _USRDLL /D FEBIOOPT_EXPORTS /D _CRT_SECURE_NO_WARNINGS /D _UNICODE /D UNICODE /Gm /EHsc /RTC1 /MDd /GS /fp:precise /Zc:wchar_t /Zc:forScope /Fo"DEBUG\\" /Fd"DEBUG\VC120.PDB" /FR"Debug\\" /Gd /TP /analyze- C:\USERS\KBRONIK.ANNASACH\DESKTOP\WORKING FOLDER\TEST FEBIO\FEBIOSOURCEEXTENDEDVERSION2\FEBIOSOURCE2EXTENDED\FEBIOOPT\FECONSTRAINEDLMOPTIMIZEMETHOD.CPP
^C:\USERS\KBRONIK.ANNASACH\DESKTOP\WORKING FOLDER\TEST FEBIO\FEBIOSOURCEEXTENDEDVERSION2\FEBIOSOURCE2EXTENDED\FEBIOOPT\FEOPTIMIZE.CPP
/c /I"C:\Users\kbronik.ANNASACH\Documents\levmar-2.6" /ZI /nologo /W3 /WX- /Od /Oy- /D WIN32 /D HAVE_LEVMAR /D _DEBUG /D _WINDOWS /D _USRDLL /D FEBIOOPT_EXPORTS /D _CRT_SECURE_NO_WARNINGS /D _UNICODE /D UNICODE /Gm /EHsc /RTC1 /MDd /GS /fp:precise /Zc:wchar_t /Zc:forScope /Fo"DEBUG\\" /Fd"DEBUG\VC120.PDB" /FR"Debug\\" /Gd /TP /analyze- C:\USERS\KBRONIK.ANNASACH\DESKTOP\WORKING FOLDER\TEST FEBIO\FEBIOSOURCEEXTENDEDVERSION2\FEBIOSOURCE2EXTENDED\FEBIOOPT\FEOPTIMIZE.CPP
^C:\USERS\KBRONIK.ANNASACH\DESKTOP\WORKING FOLDER\TEST FEBIO\FEBIOSOURCEEXTENDEDVERSION2\FEBIOSOURCE2EXTENDED\FEBIOOPT\FEOPTIMIZER.CPP
/c /I"C:\Users\kbronik.ANNASACH\Documents\levmar-2.6" /ZI /nologo /W3 /WX- /Od /Oy- /D WIN32 /D HAVE_LEVMAR /D _DEBUG /D _WINDOWS /D _USRDLL /D FEBIOOPT_EXPORTS /D _CRT_SECURE_NO_WARNINGS /D _UNICODE /D UNICODE /Gm /EHsc /RTC1 /MDd /GS /fp:precise /Zc:wchar_t /Zc:forScope /Fo"DEBUG\\" /Fd"DEBUG\VC120.PDB" /FR"Debug\\" /Gd /TP /analyze- C:\USERS\KBRONIK.ANNASACH\DESKTOP\WORKING FOLDER\TEST FEBIO\FEBIOSOURCEEXTENDEDVERSION2\FEBIOSOURCE2EXTENDED\FEBIOOPT\FEOPTIMIZER.CPP
^C:\USERS\KBRONIK.ANNASACH\DESKTOP\WORKING FOLDER\TEST FEBIO\FEBIOSOURCEEXTENDEDVERSION2\FEBIOSOURCE2EXTENDED\FEBIOOPT\FELMOPTIMIZEMETHOD.CPP
/c /I"C:\Users\kbronik.ANNASACH\Documents\levmar-2.6" /ZI /nologo /W3 /WX- /Od /Oy- /D WIN32 /D HAVE_LEVMAR /D _DEBUG /D _WINDOWS /D _USRDLL /D FEBIOOPT_EXPORTS /D _CRT_SECURE_NO_WARNINGS /D _UNICODE /D UNICODE /Gm /EHsc /RTC1 /MDd /GS /fp:precise /Zc:wchar_t /Zc:forScope /Fo"DEBUG\\" /Fd"DEBUG\VC120.PDB" /FR"Debug\\" /Gd /TP /analyze- C:\USERS\KBRONIK.ANNASACH\DESKTOP\WORKING FOLDER\TEST FEBIO\FEBIOSOURCEEXTENDEDVERSION2\FEBIOSOURCE2EXTENDED\FEBIOOPT\FELMOPTIMIZEMETHOD.CPP
^C:\USERS\KBRONIK.ANNASACH\DESKTOP\WORKING FOLDER\TEST FEBIO\FEBIOSOURCEEXTENDEDVERSION2\FEBIOSOURCE2EXTENDED\FEBIOOPT\FEPOWELLOPTIMIZEMETHOD.CPP
/c /I"C:\Users\kbronik.ANNASACH\Documents\levmar-2.6" /ZI /nologo /W3 /WX- /Od /Oy- /D WIN32 /D HAVE_LEVMAR /D _DEBUG /D _WINDOWS /D _USRDLL /D FEBIOOPT_EXPORTS /D _CRT_SECURE_NO_WARNINGS /D _UNICODE /D UNICODE /Gm /EHsc /RTC1 /MDd /GS /fp:precise /Zc:wchar_t /Zc:forScope /Fo"DEBUG\\" /Fd"DEBUG\VC120.PDB" /FR"Debug\\" /Gd /TP /analyze- C:\USERS\KBRONIK.ANNASACH\DESKTOP\WORKING FOLDER\TEST FEBIO\FEBIOSOURCEEXTENDEDVERSION2\FEBIOSOURCE2EXTENDED\FEBIOOPT\FEPOWELLOPTIMIZEMETHOD.CPP
^C:\USERS\KBRONIK.ANNASACH\DESKTOP\WORKING FOLDER\TEST FEBIO\FEBIOSOURCEEXTENDEDVERSION2\FEBIOSOURCE2EXTENDED\FEBIOOPT\FESCANOPTIMIZEMETHOD.CPP
/c /I"C:\Users\kbronik.ANNASACH\Documents\levmar-2.6" /ZI /nologo /W3 /WX- /Od /Oy- /D WIN32 /D HAVE_LEVMAR /D _DEBUG /D _WINDOWS /D _USRDLL /D FEBIOOPT_EXPORTS /D _CRT_SECURE_NO_WARNINGS /D _UNICODE /D UNICODE /Gm /EHsc /RTC1 /MDd /GS /fp:precise /Zc:wchar_t /Zc:forScope /Fo"DEBUG\\" /Fd"DEBUG\VC120.PDB" /FR"Debug\\" /Gd /TP /analyze- C:\USERS\KBRONIK.ANNASACH\DESKTOP\WORKING FOLDER\TEST FEBIO\FEBIOSOURCEEXTENDEDVERSION2\FEBIOSOURCE2EXTENDED\FEBIOOPT\FESCANOPTIMIZEMETHOD.CPP
