^C:\USERS\KEVIN\DOCUMENTS\FEBIOSOURCEXXXX\VS2010\FEBIOHEAT\DEBUG\FEBIOHEAT.SBR|C:\USERS\KEVIN\DOCUMENTS\FEBIOSOURCEXXXX\VS2010\FEBIOHEAT\DEBUG\FECONVECTIVEHEATFLUX.SBR|C:\USERS\KEVIN\DOCUMENTS\FEBIOSOURCEXXXX\VS2010\FEBIOHEAT\DEBUG\FECOUPLEDHEATSOLIDSOLVER.SBR|C:\USERS\KEVIN\DOCUMENTS\FEBIOSOURCEXXXX\VS2010\FEBIOHEAT\DEBUG\FEHEATDOMAINFACTORY.SBR|C:\USERS\KEVIN\DOCUMENTS\FEBIOSOURCEXXXX\VS2010\FEBIOHEAT\DEBUG\FEHEATFLUX.SBR|C:\USERS\KEVIN\DOCUMENTS\FEBIOSOURCEXXXX\VS2010\FEBIOHEAT\DEBUG\FEHEATSOLIDDOMAIN.SBR|C:\USERS\KEVIN\DOCUMENTS\FEBIOSOURCEXXXX\VS2010\FEBIOHEAT\DEBUG\FEHEATSOLVER.SBR|C:\USERS\KEVIN\DOCUMENTS\FEBIOSOURCEXXXX\VS2010\FEBIOHEAT\DEBUG\FEHEATSOURCE.SBR|C:\USERS\KEVIN\DOCUMENTS\FEBIOSOURCEXXXX\VS2010\FEBIOHEAT\DEBUG\FEHEATSTIFFNESSMATRIX.SBR|C:\USERS\KEVIN\DOCUMENTS\FEBIOSOURCEXXXX\VS2010\FEBIOHEAT\DEBUG\FEHEATTRANSFERANALYSIS.SBR|C:\USERS\KEVIN\DOCUMENTS\FEBIOSOURCEXXXX\VS2010\FEBIOHEAT\DEBUG\FEISOTROPICFOURIER.SBR|C:\USERS\KEVIN\DOCUMENTS\FEBIOSOURCEXXXX\VS2010\FEBIOHEAT\DEBUG\FEPLOTHEATFLUX.SBR|C:\USERS\KEVIN\DOCUMENTS\FEBIOSOURCEXXXX\VS2010\FEBIOHEAT\DEBUG\FEPLOTNODETEMPERATURE.SBR
C:\WINDOWS\SYSTEM32\TZRES.DLL
C:\USERS\KEVIN\DOCUMENTS\FEBIOSOURCEXXXX\VS2010\FEBIOHEAT\DEBUG\FEBIOHEAT.SBR
C:\USERS\KEVIN\DOCUMENTS\FEBIOSOURCEXXXX\VS2010\FEBIOHEAT\DEBUG\FECONVECTIVEHEATFLUX.SBR
C:\USERS\KEVIN\DOCUMENTS\FEBIOSOURCEXXXX\VS2010\FEBIOHEAT\DEBUG\FECOUPLEDHEATSOLIDSOLVER.SBR
C:\USERS\KEVIN\DOCUMENTS\FEBIOSOURCEXXXX\VS2010\FEBIOHEAT\DEBUG\FEHEATDOMAINFACTORY.SBR
C:\USERS\KEVIN\DOCUMENTS\FEBIOSOURCEXXXX\VS2010\FEBIOHEAT\DEBUG\FEHEATFLUX.SBR
C:\USERS\KEVIN\DOCUMENTS\FEBIOSOURCEXXXX\VS2010\FEBIOHEAT\DEBUG\FEHEATSOLIDDOMAIN.SBR
C:\USERS\KEVIN\DOCUMENTS\FEBIOSOURCEXXXX\VS2010\FEBIOHEAT\DEBUG\FEHEATSOLVER.SBR
C:\USERS\KEVIN\DOCUMENTS\FEBIOSOURCEXXXX\VS2010\FEBIOHEAT\DEBUG\FEHEATSOURCE.SBR
C:\USERS\KEVIN\DOCUMENTS\FEBIOSOURCEXXXX\VS2010\FEBIOHEAT\DEBUG\FEHEATSTIFFNESSMATRIX.SBR
C:\USERS\KEVIN\DOCUMENTS\FEBIOSOURCEXXXX\VS2010\FEBIOHEAT\DEBUG\FEHEATTRANSFERANALYSIS.SBR
C:\USERS\KEVIN\DOCUMENTS\FEBIOSOURCEXXXX\VS2010\FEBIOHEAT\DEBUG\FEISOTROPICFOURIER.SBR
C:\USERS\KEVIN\DOCUMENTS\FEBIOSOURCEXXXX\VS2010\FEBIOHEAT\DEBUG\FEPLOTHEATFLUX.SBR
C:\USERS\KEVIN\DOCUMENTS\FEBIOSOURCEXXXX\VS2010\FEBIOHEAT\DEBUG\FEPLOTNODETEMPERATURE.SBR
