^C:\USERS\KBRONIK.ANNASACH\DESKTOP\WORKING FOLDER\TEST FEBIO\FEBIOSOURCEEXTENDEDVERSION2\FEBIOSOURCE2EXTENDED\FEBIOPLOT\FEBIOPLOTFILE.CPP
/c /ZI /nologo /W3 /WX- /Od /Oy- /D WIN32 /D _DEBUG /D _LIB /D _CRT_SECURE_NO_WARNINGS /D _UNICODE /D UNICODE /Gm /EHsc /RTC1 /MDd /GS /fp:precise /Zc:wchar_t /Zc:forScope /Fo"DEBUG\\" /Fd"DEBUG\VC120.PDB" /FR"Debug\\" /Gd /TP /analyze- C:\USERS\KBRONIK.ANNASACH\DESKTOP\WORKING FOLDER\TEST FEBIO\FEBIOSOURCEEXTENDEDVERSION2\FEBIOSOURCE2EXTENDED\FEBIOPLOT\FEBIOPLOTFILE.CPP
^C:\USERS\KBRONIK.ANNASACH\DESKTOP\WORKING FOLDER\TEST FEBIO\FEBIOSOURCEEXTENDEDVERSION2\FEBIOSOURCE2EXTENDED\FEBIOPLOT\PLOTFILE.CPP
/c /ZI /nologo /W3 /WX- /Od /Oy- /D WIN32 /D _DEBUG /D _LIB /D _CRT_SECURE_NO_WARNINGS /D _UNICODE /D UNICODE /Gm /EHsc /RTC1 /MDd /GS /fp:precise /Zc:wchar_t /Zc:forScope /Fo"DEBUG\\" /Fd"DEBUG\VC120.PDB" /FR"Debug\\" /Gd /TP /analyze- C:\USERS\KBRONIK.ANNASACH\DESKTOP\WORKING FOLDER\TEST FEBIO\FEBIOSOURCEEXTENDEDVERSION2\FEBIOSOURCE2EXTENDED\FEBIOPLOT\PLOTFILE.CPP
^C:\USERS\KBRONIK.ANNASACH\DESKTOP\WORKING FOLDER\TEST FEBIO\FEBIOSOURCEEXTENDEDVERSION2\FEBIOSOURCE2EXTENDED\FEBIOPLOT\STDAFX.CPP
/c /ZI /nologo /W3 /WX- /Od /Oy- /D WIN32 /D _DEBUG /D _LIB /D _CRT_SECURE_NO_WARNINGS /D _UNICODE /D UNICODE /Gm /EHsc /RTC1 /MDd /GS /fp:precise /Zc:wchar_t /Zc:forScope /Fo"DEBUG\\" /Fd"DEBUG\VC120.PDB" /FR"Debug\\" /Gd /TP /analyze- C:\USERS\KBRONIK.ANNASACH\DESKTOP\WORKING FOLDER\TEST FEBIO\FEBIOSOURCEEXTENDEDVERSION2\FEBIOSOURCE2EXTENDED\FEBIOPLOT\STDAFX.CPP
